<?xml version="1.0" encoding="iso-8859-1"?>
<!-- Generator: Adobe Illustrator 18.1.1, SVG Export Plug-In . SVG Version: 6.00 Build 0)  -->
<svg version="1.1" id="Capa_1" xmlns="http://www.w3.org/2000/svg" xmlns:xlink="http://www.w3.org/1999/xlink" x="0px" y="0px"
	 width="16px" viewBox="0 0 314.5 314.5" style="enable-background:new 0 0 314.5 314.5;" xml:space="preserve">
<g>
	<g>
		<path style="fill:#669bc6;" d="M314.5,90.5c0,6-2,13-7,18l-133,133c-5,5-10,7-17,7s-12-2-17-7l-133-133c-10-10-10-25,0-35
			s24-10,34,0l116,116l116-116c10-10,24-10,34,0C312.5,78.5,314.5,84.5,314.5,90.5z"/>
	</g>
</g>
<g>
</g>
<g>
</g>
<g>
</g>
<g>
</g>
<g>
</g>
<g>
</g>
<g>
</g>
<g>
</g>
<g>
</g>
<g>
</g>
<g>
</g>
<g>
</g>
<g>
</g>
<g>
</g>
<g>
</g>
</svg>
