<?xml version="1.0" encoding="iso-8859-1"?>
<!-- Generator: Adobe Illustrator 19.0.0, SVG Export Plug-In . SVG Version: 6.00 Build 0)  -->
<svg version="1.1" id="Capa_1" xmlns="http://www.w3.org/2000/svg" xmlns:xlink="http://www.w3.org/1999/xlink" x="0px" y="0px"
	 viewBox="0 0 31.113 31.113" style="enable-background:new 0 0 31.113 31.113;" xml:space="preserve">
<line style="fill:none;stroke:#f0f0f0;stroke-width:3;stroke-miterlimit:10;" x1="30.406" y1="0.707" x2="0.707" y2="30.406"/>
<line style="fill:none;stroke:#f0f0f0;stroke-width:3;stroke-miterlimit:10;" x1="30.406" y1="30.406" x2="0.707" y2="0.707"/>
<g>
</g>
<g>
</g>
<g>
</g>
<g>
</g>
<g>
</g>
<g>
</g>
<g>
</g>
<g>
</g>
<g>
</g>
<g>
</g>
<g>
</g>
<g>
</g>
<g>
</g>
<g>
</g>
<g>
</g>
</svg>
