<?xml version="1.0" encoding="UTF-8"?>
<wnd xmlns="http://www.asoft.ru/xsl/ai" id="AccountTransactionGet" class="generic" title="`Transaction`">
  <types from="BASETYPE"/>
  <types from="BALOONTYPE"/>
  <types from="BaloonautoTYPE"/>
  <ele id="id" class="Spinner" type="ID" visibility="vo" title="`ID`"/>
  <ele id="accountid" class="Spinner" type="ID" visibility="link" handle="CLICK" ref="PartnerAccount" title="`ID`" hidden="yes"/>
  <ele id="amount" class="MoneyInput" type="MONEY" visibility="vo" title="`Amount`"/>
  <ele id="cache_flow" class="DropDown" type="CACHE_FLOW" visibility="vo" title="`Cache Flow`"/>
  <ele id="reason" class="TextInput" type="TEXT" visibility="vo" title="`Reason`"/>
  <ele id="Edit" class="SimpleButton" autofocus="no" shortcut="#45" label="`Edit`"/>
  <ele id="Cancel" class="SimpleButton" autofocus="no" misc="yes" shortcut="#27" label="`Cancel`"/>
  <a id="Init">
    <call aid="c1" meth="/srv/Baloon/AccountTransaction/Get" args="id " rets="accountid amount cache_flow reason "/>
    <call aid="r1" meth="/srv/Baloon/PartnerAccount/Get" args="id=accountid " rets="" when="(accountid != 'none:')"/>
    <ele aid="InitWinTitle" id="AccountTransactionGet" title="`Transaction`"/>
  </a>
  <a id="Edit" shortcut="#45">
    <evt type="WM_PUSH" aid="c1" src="/act/Baloon/AccountTransactionUpdate" args="id accountid amount cache_flow reason "/>
  </a>
  <a id="Cancel" shortcut="#27">
    <evt aid="ret" type="WM_BACK" args="id accountid amount cache_flow reason " step="1"/>
  </a>
  <a id="accountid_CLICK">
    <evt type="WM_PUSH" aid="1.1" src="/act/Baloon/PartnerAccountFolder" args="id=accountid "/>
  </a>
  <lay>
    <grid id="General">
      <row id="id">
        <cell id="id_label" labelfor="id" text="`ID`"/>
        <cell id="id">
          <ele id="id"/>
        </cell>
      </row>
      <row id="account">
        <cell id="account_label" labelfor="accountid" text="`Account`"/>
        <cell id="account">
          <ele id="accountid"/>
        </cell>
      </row>
      <row id="amount">
        <cell id="amount_label" labelfor="amount" text="`Amount`"/>
        <cell id="amount">
          <ele id="amount"/>
        </cell>
      </row>
      <row id="cache_flow">
        <cell id="cache_flow_label" labelfor="cache_flow" text="`Cache Flow`"/>
        <cell id="cache_flow">
          <ele id="cache_flow"/>
        </cell>
      </row>
      <row id="reason">
        <cell id="reason_label" labelfor="reason" text="`Reason`"/>
        <cell id="reason">
          <ele id="reason"/>
        </cell>
      </row>
    </grid>
    <grid id="BGeneral" class="DialogButtons">
      <row id="BGeneral">
        <cell id="BGeneral">
          <ele id="Edit"/>
        </cell>
        <cell id="MiscBGeneral" class="MiscButtons">
          <ele id="Cancel"/>
        </cell>
      </row>
    </grid>
  </lay>
</wnd>
