<?xml version="1.0" encoding="UTF-8"?>
<wnd xmlns="http://www.asoft.ru/xsl/ai" id="AccountGet" class="generic" title="`Account`">
  <types from="BASETYPE"/>
  <types from="BALOONTYPE"/>
  <types from="BaloonautoTYPE"/>
  <ele id="currency" class="StringInput" type="STR10" visibility="vo" title="`Currency`"/>
  <ele id="personid" class="Spinner" type="ID" visibility="link" handle="CLICK" ref="Person" title="`Person ID`" hidden="yes" group="General"/>
  <ele id="personemail" class="StringInput" type="EMAIL" visibility="link" handle="CLICK" ref="Person" title="`Email`" group="General"/>
  <ele id="valid" class="Checkbox" type="BOOL" visibility="vo" title="`Is Valid`"/>
  <ele id="balance" class="MoneyInput" type="MONEY" visibility="vo" title="`Balance`"/>
  <ele id="Edit" class="SimpleButton" autofocus="no" shortcut="#45" label="`Edit`"/>
  <ele id="Cancel" class="SimpleButton" autofocus="no" misc="yes" shortcut="#27" label="`Cancel`"/>
  <a id="Init">
    <call aid="c1" meth="/srv/Baloon/Account/Get" args="currency personid " rets="valid balance "/>
    <call aid="r1" meth="/srv/Baloon/Person/Get" args="id=personid " rets="personemail=email " when="(personid != 'none:')"/>
    <ele id="personemail" aid="nonepersonemail" value="none:" when="(personid = 'none:')"/>
    <ele aid="InitWinTitle" id="AccountGet" title="`Account`"/>
  </a>
  <a id="Edit" shortcut="#45">
    <evt type="WM_PUSH" aid="c1" src="/act/Baloon/AccountUpdate" args="currency personid personemail valid balance "/>
  </a>
  <a id="Cancel" shortcut="#27">
    <evt aid="ret" type="WM_BACK" args="currency personid valid balance " step="1"/>
  </a>
  <a id="personid_CLICK">
    <evt type="WM_PUSH" aid="1.1" src="/act/Baloon/PersonFolder" args="id=personid email=personemail "/>
  </a>
  <a id="personemail_CLICK">
    <evt type="WM_PUSH" aid="1.2" src="/act/Baloon/PersonFolder" args="id=personid email=personemail "/>
  </a>
  <lay>
    <grid id="General">
      <row id="currency">
        <cell id="currency_label" labelfor="currency" text="`Currency`"/>
        <cell id="currency">
          <ele id="currency"/>
        </cell>
      </row>
      <row id="person">
        <cell id="person_label" labelfor="personid" text="`Client`"/>
        <cell id="person">
          <ele id="personemail"/>
        </cell>
      </row>
      <row id="valid">
        <cell id="valid_label" labelfor="valid" text="`Is Valid`"/>
        <cell id="valid">
          <ele id="valid"/>
        </cell>
      </row>
      <row id="balance">
        <cell id="balance_label" labelfor="balance" text="`Balance`"/>
        <cell id="balance">
          <ele id="balance"/>
        </cell>
      </row>
    </grid>
    <grid id="BGeneral" class="DialogButtons">
      <row id="BGeneral">
        <cell id="BGeneral">
          <ele id="Edit"/>
        </cell>
        <cell id="MiscBGeneral" class="MiscButtons">
          <ele id="Cancel"/>
        </cell>
      </row>
    </grid>
  </lay>
</wnd>
