<wnd xmlns="http://www.asoft.ru/xsl/ai" id="wContent" class="wcContent" title="Content">

	<!-- Elements -->
	<ele class="tree" id="TreeRoot" label="`TreeRoot`" htmlclass="menuTreeRoot"/>
	<ele class="tree-node" id="MyAgentOrders" label="`Agent Sales`" src="/act/Baloon/CurrentAgentOrderList"/>
	<ele class="tree-node" id="AgentSalesReport" label="`Sales Report`" src="/act/Baloon/CurrentAgentSalesReport"/>
	<!-- Init Action -->
	<a id="Init"/>

	<!-- Layout -->
	<lay>
		<ele id="TreeRoot">
			<ele id="MyAgentOrders">
			</ele>
			<ele id="AgentSalesReport">
			</ele>
		</ele>
	</lay>
</wnd>
