<?xml version="1.0" encoding="UTF-8"?>
<wnd xmlns="http://www.asoft.ru/xsl/ai" id="AgentIdentifierOrderlineAdd" class="generic" title="`Orderline`">
  <types from="BASETYPE"/>
  <types from="BALOONTYPE"/>
  <types from="BaloonautoTYPE"/>
  <ele id="orderid" class="Spinner" type="ID" handle="CHANGE" ref="AgentOrder" title="`Order ID`" hidden="yes"/>
  <ele id="Choose_order" class="popup" label="`...`" handle="CLICK" src="" rets="orderid=id " align="Choose_order"/>
  <ele id="identifierid" class="Spinner" type="ID" handle="CHANGE" ref="Identifier" title="`ID`" hidden="yes" group="General"/>
  <ele id="identifiercode" class="StringInput" type="STR50" visibility="ro" ref="Identifier" title="`Card Code`" unique="code_unique"/>
  <ele id="Choose_identifier" class="popup" label="`...`" handle="CLICK" src="" rets="identifierid=id identifiercode=code " align="Choose_identifier"/>
  <ele id="price" class="MoneyInput" type="MONEY" title="`Price`"/>
  <ele id="Add" class="SimpleButton" autofocus="no" dependsOn="orderid identifierid " shortcut="Ctrl+S" primary="yes" label="`Add`"/>
  <ele id="Cancel" class="SimpleButton" autofocus="no" misc="yes" shortcut="#27" label="`Cancel`"/>
  <a id="Init">
    <call aid="r1" meth="/srv/Baloon/AgentOrder/Get" args="id=orderid " rets="" when="(orderid != 'none:')"/>
    <call aid="r2" meth="/srv/Baloon/Identifier/Get" args="id=identifierid " rets="identifiercode=code " when="(identifierid != 'none:')"/>
    <ele id="identifiercode" aid="noneidentifiercode" value="none:" when="(identifierid = 'none:')"/>
    <ele aid="dorder1" id="orderid" visibility="vo" when="(orderid != 'none:')"/>
    <ele aid="dorderChoose" id="Choose_order" visibility="ro" when="(orderid != 'none:')"/>
    <ele aid="didentifier1" id="identifierid" visibility="vo" when="(identifierid != 'none:')"/>
    <ele aid="didentifier2" id="identifiercode" visibility="vo" when="(identifierid != 'none:')"/>
    <ele aid="didentifierChoose" id="Choose_identifier" visibility="ro" when="(identifierid != 'none:')"/>
    <ele aid="InitWinTitle" id="AgentIdentifierOrderlineAdd" title="`Orderline`"/>
  </a>
  <a id="Add" primary="yes" shortcut="Ctrl+S">
    <call aid="c1" meth="/srv/Baloon/AgentIdentifierOrderline/Add" args="orderid identifierid price " rets=""/>
    <evt aid="ret" type="WM_BACK" args="orderid identifierid price " step="1"/>
  </a>
  <a id="Cancel" shortcut="#27">
    <evt aid="ret" type="WM_BACK" args="orderid identifierid price " step="1"/>
  </a>
  <a id="orderid_CHANGE">
    <call meth="/srv/Baloon/AgentOrder/Get" args="id=orderid " rets="" aid="c1"/>
  </a>
  <a id="identifierid_CHANGE">
    <call meth="/srv/Baloon/Identifier/Get" args="id=identifierid " rets="identifiercode=code " aid="c1"/>
  </a>
  <a id="Choose_order">
    <evt aid="popupcall" type="WM_POPUP" id="Choose_order" src="/act/Baloon/AgentOrderListPopup" args="" rets=""/>
  </a>
  <a id="Choose_identifier">
    <evt aid="popupcall" type="WM_POPUP" id="Choose_identifier" src="/act/Baloon/IdentifierListPopup" args="" rets=""/>
  </a>
  <lay>
    <grid id="General">
      <row id="order">
        <cell id="order_label" labelfor="orderid" text="`Agent Order`*"/>
        <cell id="order">
          <ele id="orderid"/>
          <ele id="Choose_order"/>
        </cell>
      </row>
      <row id="identifier">
        <cell id="identifier_label" labelfor="identifierid" text="`Identifier`*"/>
        <cell id="identifier">
          <ele id="identifiercode"/>
          <ele id="Choose_identifier"/>
        </cell>
      </row>
      <row id="price">
        <cell id="price_label" labelfor="price" text="`Price`"/>
        <cell id="price">
          <ele id="price"/>
        </cell>
      </row>
    </grid>
    <grid id="BGeneral" class="DialogButtons">
      <row id="BGeneral">
        <cell id="BGeneral">
          <ele id="Add"/>
        </cell>
        <cell id="MiscBGeneral" class="MiscButtons">
          <ele id="Cancel"/>
        </cell>
      </row>
    </grid>
  </lay>
</wnd>
