<?xml version="1.0" encoding="UTF-8"?>
<wnd xmlns="http://www.asoft.ru/xsl/ai" id="CurrentAgentOrderAdd" class="generic" title="`Add Fillup Order`">
  <types from="BASETYPE"/>
  <types from="BALOONTYPE"/>
  <types from="BaloonautoTYPE"/>
  <ele id="code" class="StringInput" type="STR50" title="`Card Code`"/>
  <ele id="amount" class="MoneyInput" type="MONEY" title="`Amount`"/>
  <ele id="comment" class="TextInput" type="TEXT" title="`Comment`"/>
  <ele id="id" class="Spinner" type="ID" visibility="vo" title="`Order ID`"/>
  <ele id="Save" class="SimpleButton" autofocus="no" dependsOn="amount " label="`Save`"/>
  <ele id="Cancel" class="SimpleButton" autofocus="no" misc="yes" shortcut="#27" label="`Cancel`"/>
  <a id="Init">
    <ele aid="InitWinTitle" id="CurrentAgentOrderAdd" title="`Add Fillup Order`"/>
  </a>
  <a id="Save">
    <call aid="c1" meth="/srv/Baloon/AgentOrder/CurrentAdd" args="code amount comment " rets="id "/>
    <evt aid="ret" type="WM_BACK" args="code amount comment id " step="1"/>
  </a>
  <a id="Cancel" shortcut="#27">
    <evt aid="ret" type="WM_BACK" args="code amount comment id " step="1"/>
  </a>
  <lay>
    <grid id="General">
      <row id="code">
        <cell id="code_label" labelfor="code" text="`Card Code`"/>
        <cell id="code">
          <ele id="code"/>
        </cell>
      </row>
      <row id="amount">
        <cell id="amount_label" labelfor="amount" text="`Amount`*"/>
        <cell id="amount">
          <ele id="amount"/>
        </cell>
      </row>
      <row id="comment">
        <cell id="comment_label" labelfor="comment" text="`Comment`"/>
        <cell id="comment">
          <ele id="comment"/>
        </cell>
      </row>
      <row id="id">
        <cell id="id_label" labelfor="id" text="`Order ID`"/>
        <cell id="id">
          <ele id="id"/>
        </cell>
      </row>
    </grid>
    <grid id="BGeneral" class="DialogButtons">
      <row id="BGeneral">
        <cell id="BGeneral">
          <ele id="Save"/>
        </cell>
        <cell id="MiscBGeneral" class="MiscButtons">
          <ele id="Cancel"/>
        </cell>
      </row>
    </grid>
  </lay>
</wnd>
