<wnd xmlns="http://www.asoft.ru/xsl/ai" id="HolidayFolder" class="TabBar" title="``">
	<types from="BASETYPE"/>
	<types from="BALOONTYPE"/>
	<types from="AUTHORIZERTYPE"/>
	<types from="PAYGATETYPE"/>
	<types from="BASICSITETYPE"/>
	<types from="MULTIMEDIATYPE"/>
	<types from="FISCALTYPE"/>
	<types from="BaloonautoTYPE"/>
	<ele class="Tab" id="HolidayGet" label="`General`"/>
	<ele class="widget" id="WorkSpace"/>
	<ele id="adate"  type="DATE" title="`Date`" />
	<ele id="out_of_service"  type="BOOL" title="`Out Of Service`" />
	<ele id="comment"  type="TEXT" title="`Comment`" />
	<a id="Init">
		<ele id="HolidayFolder" aid="WndTitle" title="`Holiday`"/>
	</a>
	<a id="HolidayGet">
		<ele aid="c1" id="WorkSpace" src="/act/Baloon/HolidayGet" args="adate " selected="yes"/>
	</a>
	<lay>
		<grid id="gt" class="TabBarGrid">
			<row id="rt">
				<cell id="ct1" class="TabBarCell">
					<ele id="HolidayGet"/>
				</cell>
			</row>
		</grid>
		<grid id="gw" class="TabBarBody" heightLimit="100%">
			<row id="rw">
				<cell id="cw">
					<ele id="WorkSpace" />
				</cell>
			</row>
		</grid>
	</lay>
</wnd>
