<?xml version="1.0" encoding="UTF-8"?>
<wnd xmlns="http://www.asoft.ru/xsl/ai" id="IdentifierServiceRuleUpdate" class="generic" title="`Service Rule Accessibility Settings`">
  <types from="BASETYPE"/>
  <types from="BALOONTYPE"/>
  <types from="BaloonautoTYPE"/>
  <ele id="identifier_rulename" class="StringInput" type="STR255" visibility="link" handle="CLICK" ref="IdentifierRule" title="`Правило пользования`"/>
  <ele id="service_rulename" class="StringInput" type="STR255" visibility="link" handle="CLICK" ref="SpdServiceRule" title="`Правило оформления`"/>
  <ele id="name" class="StringInput" type="STR255" title="`Name`"/>
  <ele id="enabled" class="DropDown" type="ENABLED_STATUS" title="`Enabled`"/>
  <ele id="weekday_cost" class="MoneyInput" type="MONEY" title="`Weekday Cost`"/>
  <ele id="weekend_cost" class="MoneyInput" type="MONEY" title="`Weekend Cost`"/>
  <ele id="Update" class="SimpleButton" autofocus="no" dependsOn="name " shortcut="Ctrl+S" primary="yes" label="`Update`"/>
  <ele id="Cancel" class="SimpleButton" autofocus="no" misc="yes" shortcut="#27" label="`Cancel`"/>
  <a id="Init">
    <ele aid="c1" id="identifier_rule"/>
    <ele aid="c2" id="service_rule"/>
    <call aid="r1" meth="/srv/Baloon/IdentifierRule/Get" args="name=identifier_rulename " rets="" when="(identifier_rulename != 'none:')"/>
    <call aid="r2" meth="/srv/Baloon/SpdServiceRule/Get" args="name=service_rulename " rets="" when="(service_rulename != 'none:')"/>
    <ele aid="InitWinTitle" id="IdentifierServiceRuleUpdate" title="`Service Rule Accessibility Settings`"/>
  </a>
  <a id="Update" primary="yes" shortcut="Ctrl+S">
    <call aid="c1" meth="/srv/Baloon/IdentifierServiceRule/Update" args="identifier_rulename service_rulename name enabled weekday_cost weekend_cost " rets=""/>
    <evt aid="ret" type="WM_BACK" args="identifier_rulename service_rulename name enabled weekday_cost weekend_cost " step="1"/>
  </a>
  <a id="Cancel" shortcut="#27">
    <evt aid="ret" type="WM_BACK" args="identifier_rulename service_rulename name enabled weekday_cost weekend_cost " step="1"/>
  </a>
  <a id="identifier_rulename_CLICK">
    <evt type="WM_PUSH" aid="1.1" src="/act/Baloon/IdentifierRuleFolder" args="name=identifier_rulename "/>
  </a>
  <a id="service_rulename_CLICK">
    <evt type="WM_PUSH" aid="2.1" src="/act/Baloon/SpdServiceRuleFolder" args="name=service_rulename "/>
  </a>
  <lay>
    <grid id="General">
      <row id="identifier_rule">
        <cell id="identifier_rule_label" labelfor="identifier_rulename" text="`Правило пользования`"/>
        <cell id="identifier_rule">
          <ele id="identifier_rulename"/>
        </cell>
      </row>
      <row id="service_rule">
        <cell id="service_rule_label" labelfor="service_rulename" text="`Правило оформления`"/>
        <cell id="service_rule">
          <ele id="service_rulename"/>
        </cell>
      </row>
      <row id="name">
        <cell id="name_label" labelfor="name" text="`Name`*"/>
        <cell id="name">
          <ele id="name"/>
        </cell>
      </row>
      <row id="enabled">
        <cell id="enabled_label" labelfor="enabled" text="`Enabled`"/>
        <cell id="enabled">
          <ele id="enabled"/>
        </cell>
      </row>
      <row id="weekday_cost">
        <cell id="weekday_cost_label" labelfor="weekday_cost" text="`Weekday Cost`"/>
        <cell id="weekday_cost">
          <ele id="weekday_cost"/>
        </cell>
      </row>
      <row id="weekend_cost">
        <cell id="weekend_cost_label" labelfor="weekend_cost" text="`Weekend Cost`"/>
        <cell id="weekend_cost">
          <ele id="weekend_cost"/>
        </cell>
      </row>
    </grid>
    <grid id="BGeneral" class="DialogButtons">
      <row id="BGeneral">
        <cell id="BGeneral">
          <ele id="Update"/>
        </cell>
        <cell id="MiscBGeneral" class="MiscButtons">
          <ele id="Cancel"/>
        </cell>
      </row>
    </grid>
  </lay>
</wnd>
