<wnd xmlns="http://www.asoft.ru/xsl/ai" id="IdentifierListPopup" class="generic" title="`Identifiers`">
	<types from="BASETYPE"/>
	<types from="BALOONTYPE"/>
	<types from="AUTHORIZERTYPE"/>
	<types from="PAYGATETYPE"/>
	<types from="BASICSITETYPE"/>
	<types from="MULTIMEDIATYPE"/>
	<types from="FISCALTYPE"/>
	<types from="BaloonautoTYPE"/>
	<ele id="personid" type="ID"/>
	<ele id="permanent_rulename" type="STR255"/>
	<ele id="categoryname" type="STR255"/>
	<ele id="ratename" type="STR255"/>
	<ele id="spdgateid" type="ID"/>
	<ele class="ScrollableGrid" id="IdentifierList" title="`Identifiers`" handle="CLICK">
		<ele class="column" type="ID" id="id" bind="id" title="`ID`" aid="c1" visibility="no"/>
		<ele class="column" type="STR50" id="code" bind="code" title="`Card Code`" aid="c2"/>
		<ele class="column" type="NAME" id="name" bind="name" title="`Name`" aid="c3"/>
		<ele class="column" type="UTCTIMESTAMP" id="valid_from" bind="valid_from" title="`Valid from`" aid="c4"/>
		<ele class="column" type="UTCTIMESTAMP" id="valid_to" bind="valid_to" title="`Valid to`" aid="c5"/>
		<ele class="column" type="STR255" id="permanent_rulename" bind="permanent_rulename" title="`Rule to use`" aid="c6" alias="permanent_rule"/>
		<ele class="column" type="STR255" id="categoryname" bind="categoryname" title="`Category name`" aid="c7" alias="category"/>
		<ele class="column" type="STR255" id="ratename" bind="ratename" title="`Rate name`" aid="c8" alias="rate"/>
		<ele class="column" type="IDENTIFIER_STATUS" id="status" bind="status" title="`Status`" aid="c9"/>
		<ele class="column" type="TEXT" id="comment" bind="comment" title="`Comment`" aid="c10"/>
	</ele>
	<a id="IdentifierList">
		<evt aid="c1" type="WM_POPUP_RETURN" args="id=event.id code=event.code name=event.name valid_from=event.valid_from valid_to=event.valid_to permanent_rulename=event.permanent_rulename categoryname=event.categoryname ratename=event.ratename status=event.status comment=event.comment " />
	</a>
	<a id="Init">
		<call aid="c1" meth="/srv/Baloon/Identifier/IdentifierListGet" args="personid permanent_rulename categoryname ratename spdgateid " rets="IdentifierList=*"/>
	</a>
	<lay>
		<grid id="g1" heightLimit="100%" exclude="Delete">
			<row id="r1">
				<cell id="IdentifierList_cell" colspan="2"><ele id="IdentifierList"/></cell>
			</row>
		</grid>
	</lay>
</wnd>
