<wnd xmlns="http://www.asoft.ru/xsl/ai" id="IdentifierRuleEnabledList" class="generic" title="`Правила пользования`">
	<types from="BASETYPE"/>
	<types from="BALOONTYPE"/>
	<types from="AUTHORIZERTYPE"/>
	<types from="PAYGATETYPE"/>
	<types from="BASICSITETYPE"/>
	<types from="MULTIMEDIATYPE"/>
	<types from="FISCALTYPE"/>
	<types from="BaloonautoTYPE"/>
	<ele class="ScrollableGrid" id="IdentifierRuleEnabledList" title="`Правила пользования`" handle="CLICK">
		<ele class="column" type="STR255" id="name" bind="name" title="`Правило пользования`" aid="c1"/>
		<ele class="column" type="ID" id="extid" bind="extid" title="`External ID`" aid="c2"/>
		<ele class="column" type="ID" id="extcode" bind="extcode" title="`External Code`" aid="c3"/>
		<ele class="column" type="TEXT" id="comment" bind="comment" title="`Comment`" aid="c4"/>
	</ele>

	<!-- Default buttons buttons -->
	<ele class="SimpleButton" id="AddIdentifierRule" label="`Add Правило пользования`" shortcut="#45" autofocus="no"/>
	<ele class="SimpleButton" id="Delete" label="`Delete`" shortcut="#46" autofocus="no"/>

	<!-- Custom buttons -->

	<!-- Custom actions -->

	<!-- Default actions -->
	<a id="IdentifierRuleEnabledList">
		<evt aid="c1" type="WM_PUSH" src="/act/Baloon/IdentifierRuleFolder" args="name=event.name "/>
	</a>
	<a id="AddIdentifierRule">
		<evt aid="c1" type="WM_PUSH" src="/act/Baloon/IdentifierRuleAdd" args=""/>
	</a>
	<a id="Delete">
		<call aid="c1" meth="/srv/Baloon/IdentifierRule/Delete" args="name=IdentifierRuleEnabledList.name "/>
		<evt aid="c2" type="WM_REFRESH" id="IdentifierRuleEnabledList"/>
	</a>
	<a id="Init">
		<call aid="c1" meth="/srv/Baloon/IdentifierRule/IdentifierRuleEnabledListGet" args="" rets="IdentifierRuleEnabledList=*"/>
	</a>
	<lay>
		<grid id="g1" class="ListGrid" heightLimit="100%">
			<row id="r1">
				<cell id="buttonsCell" class="MainButtonsCell">
					<ele id="AddIdentifierRule"/>
					<ele id="Delete"/>
				</cell>
			</row>
			<row id="r2">
				<cell id="IdentifierRuleEnabledList_cell" colspan="2"><ele id="IdentifierRuleEnabledList"/></cell>
			</row>
		</grid>
	</lay>
</wnd>
