<wnd xmlns="http://www.asoft.ru/xsl/ai" id="IdentifierRateList" class="generic" title="`Тарифы`">
	<types from="BASETYPE"/>
	<types from="BALOONTYPE"/>
	<types from="AUTHORIZERTYPE"/>
	<types from="PAYGATETYPE"/>
	<types from="BASICSITETYPE"/>
	<types from="MULTIMEDIATYPE"/>
	<types from="FISCALTYPE"/>
	<types from="BaloonautoTYPE"/>
	<ele class="ScrollableGrid" id="IdentifierRateList" title="`Тарифы`" handle="CLICK">
		<ele class="column" type="STR255" id="name" bind="name" title="`Тариф`" aid="c1"/>
		<ele class="column" type="ENABLED_STATUS" id="enabled" bind="enabled" title="`Enabled`" aid="c2"/>
		<ele class="column" type="ID" id="extid" bind="extid" title="`External ID`" aid="c3"/>
		<ele class="column" type="ID" id="extcode" bind="extcode" title="`External Code`" aid="c4"/>
		<ele class="column" type="TEXT" id="comment" bind="comment" title="`Comment`" aid="c5"/>
	</ele>

	<!-- Default buttons buttons -->
	<ele class="SimpleButton" id="AddIdentifierRate" label="`Add Тариф`" shortcut="#45" autofocus="no"/>
	<ele class="SimpleButton" id="Delete" label="`Delete`" shortcut="#46" autofocus="no"/>

	<!-- Custom buttons -->

	<!-- Custom actions -->

	<!-- Default actions -->
	<a id="IdentifierRateList">
		<evt aid="c1" type="WM_PUSH" src="/act/Baloon/IdentifierRateFolder" args="name=event.name "/>
	</a>
	<a id="AddIdentifierRate">
		<evt aid="c1" type="WM_PUSH" src="/act/Baloon/IdentifierRateAdd" args=""/>
	</a>
	<a id="Delete">
		<call aid="c1" meth="/srv/Baloon/IdentifierRate/Delete" args="name=IdentifierRateList.name "/>
		<evt aid="c2" type="WM_REFRESH" id="IdentifierRateList"/>
	</a>
	<a id="Init">
		<call aid="c1" meth="/srv/Baloon/IdentifierRate/IdentifierRateListGet" args="" rets="IdentifierRateList=*"/>
	</a>
	<lay>
		<grid id="g1" class="ListGrid" heightLimit="100%">
			<row id="r1">
				<cell id="buttonsCell" class="MainButtonsCell">
					<ele id="AddIdentifierRate"/>
					<ele id="Delete"/>
				</cell>
			</row>
			<row id="r2">
				<cell id="IdentifierRateList_cell" colspan="2"><ele id="IdentifierRateList"/></cell>
			</row>
		</grid>
	</lay>
</wnd>
