<wnd xmlns="http://www.asoft.ru/xsl/ai" id="IdentifierAgentOrderList" class="generic" title="`Identifier Orders`">
	<types from="BASETYPE"/>
	<types from="BALOONTYPE"/>
	<types from="AUTHORIZERTYPE"/>
	<types from="PAYGATETYPE"/>
	<types from="BASICSITETYPE"/>
	<types from="MULTIMEDIATYPE"/>
	<types from="FISCALTYPE"/>
	<types from="BaloonautoTYPE"/>
	<ele id="agentid" type="ID"/>
	<ele id="permanent_rulename" type="STR255"/>
	<ele id="categoryname" type="STR255"/>
	<ele id="ratename" type="STR255"/>
	<ele class="ScrollableGrid" id="IdentifierAgentOrderList" title="`Identifier Orders`" handle="CLICK">
		<ele class="column" type="ID" id="id" bind="id" title="`Order ID`" aid="c1" visibility="no"/>
		<ele class="column" type="ID" id="agentid" bind="agentid" title="`Agent ID`" aid="c2" visibility="no"/>
		<ele class="column" type="NAME" id="agentname" bind="agentname" title="`Agent name`" aid="c3" alias="agent"/>
		<ele class="column" type="STR50" id="code" bind="code" title="`Card Code`" aid="c4"/>
		<ele class="column" type="MONEY" id="amount" bind="amount" title="`Amount`" aid="c5"/>
		<ele class="column" type="UTCTIMESTAMP" id="filed_at" bind="filed_at" title="`Filed at`" aid="c6"/>
		<ele class="column" type="UTCTIMESTAMP" id="valid_from" bind="valid_from" title="`Valid from`" aid="c7"/>
		<ele class="column" type="UTCTIMESTAMP" id="valid_to" bind="valid_to" title="`Valid to`" aid="c8"/>
		<ele class="column" type="STR255" id="permanent_rulename" bind="permanent_rulename" title="`Правило пользования`" aid="c9"/>
		<ele class="column" type="STR255" id="categoryname" bind="categoryname" title="`Название категории`" aid="c10"/>
		<ele class="column" type="STR255" id="ratename" bind="ratename" title="`Тариф`" aid="c11"/>
		<ele class="column" type="STR50" id="other_card_code" bind="other_card_code" title="`Clients other card code`" aid="c12"/>
		<ele class="column" type="TEXT" id="comment" bind="comment" title="`Comment`" aid="c13" visibility="no"/>
	</ele>

	<!-- Default buttons buttons -->
	<ele class="SimpleButton" id="AddIdentifierAgentOrder" label="`Add Identifier Order`" shortcut="#45" autofocus="no"/>
	<ele class="SimpleButton" id="Delete" label="`Delete`" shortcut="#46" autofocus="no"/>

	<!-- Custom buttons -->

	<!-- Custom actions -->

	<!-- Default actions -->
	<a id="IdentifierAgentOrderList">
		<evt aid="c1" type="WM_PUSH" src="/act/Baloon/IdentifierAgentOrderFolder" args="id=event.id "/>
	</a>
	<a id="AddIdentifierAgentOrder">
		<evt aid="c1" type="WM_PUSH" src="/act/Baloon/IdentifierAgentOrderAdd" args="agentid permanent_rulename categoryname ratename "/>
	</a>
	<a id="Delete">
		<call aid="c1" meth="/srv/Baloon/AgentOrder/Delete" args="id=IdentifierAgentOrderList.id "/>
		<evt aid="c2" type="WM_REFRESH" id="IdentifierAgentOrderList"/>
	</a>
	<a id="Init">
		<call aid="c1" meth="/srv/Baloon/IdentifierAgentOrder/IdentifierAgentOrderListGet" args="agentid permanent_rulename categoryname ratename " rets="IdentifierAgentOrderList=*"/>
	</a>
	<lay>
		<grid id="g1" class="ListGrid" heightLimit="100%">
			<row id="r1">
				<cell id="buttonsCell" class="MainButtonsCell">
					<ele id="AddIdentifierAgentOrder"/>
					<ele id="Delete"/>
				</cell>
			</row>
			<row id="r2">
				<cell id="IdentifierAgentOrderList_cell" colspan="2"><ele id="IdentifierAgentOrderList"/></cell>
			</row>
		</grid>
	</lay>
</wnd>
