<wnd xmlns="http://www.asoft.ru/xsl/ai" id="InfoPlacementListPopup" class="generic" title="`Info Placement`">
	<types from="BASETYPE"/>
	<types from="BALOONTYPE"/>
	<types from="AUTHORIZERTYPE"/>
	<types from="PAYGATETYPE"/>
	<types from="BASICSITETYPE"/>
	<types from="MULTIMEDIATYPE"/>
	<types from="FISCALTYPE"/>
	<types from="BaloonautoTYPE"/>
	<ele id="id" type="ID"/>
	<ele class="ScrollableGrid" id="InfoPlacementList" title="`Info Placement`" handle="CLICK">
		<ele class="column" type="ID" id="id" bind="id" title="`ID`" aid="c1"/>
		<ele class="column" type="STR255" id="title" bind="title" title="`Title`" aid="c2"/>
		<ele class="column" type="WIDGET_TYPE" id="widget" bind="widget" title="`Widget`" aid="c3"/>
	</ele>
	<a id="InfoPlacementList">
		<evt aid="c1" type="WM_POPUP_RETURN" args="id=event.id title=event.title widget=event.widget " />
	</a>
	<a id="Init">
		<call aid="c1" meth="/srv/Baloon/InfoPlacement/InfoPlacementListGet" args="id " rets="InfoPlacementList=*"/>
	</a>
	<lay>
		<grid id="g1" heightLimit="100%">
			<row id="r1">
				<cell id="InfoPlacementList_cell" colspan="2"><ele id="InfoPlacementList"/></cell>
			</row>
		</grid>
	</lay>
</wnd>
