<?xml version="1.0" encoding="UTF-8"?>
<wnd xmlns="http://www.asoft.ru/xsl/ai" id="NewsArticleAdd" class="generic" title="`Add Article`">
  <types from="BASETYPE"/>
  <types from="BALOONTYPE"/>
  <types from="BaloonautoTYPE"/>
  <ele id="title" class="StringInput" type="STR255" title="`Title`"/>
  <ele id="text_content" class="TextInput" type="TEXT" title="`Text Content`"/>
  <ele id="priority" class="Spinner" type="INT" title="`Priority`"/>
  <ele id="Add" class="SimpleButton" autofocus="no" dependsOn="title text_content " ret="yes" label="`Save`"/>
  <ele id="Cancel" class="SimpleButton" autofocus="no" misc="yes" shortcut="#27" label="`Cancel`"/>
  <a id="Init">
    <ele aid="InitWinTitle" id="NewsArticleAdd" title="`Add Article`"/>
  </a>
  <a id="Add">
    <call aid="c1" meth="/srv/Baloon/Advertisement/NewsArticleAdd" args="title text_content priority" rets=""/>
    <evt aid="ret" type="WM_BACK" args="title text_content priority " step="1"/>
  </a>
  <a id="Cancel" shortcut="#27">
    <evt aid="ret" type="WM_BACK" args="title text_content priority " step="1"/>
  </a>
  <lay>
    <grid id="General">
      <row id="title">
        <cell id="title_label" labelfor="title" text="`Title`*"/>
        <cell id="title">
          <ele id="title"/>
        </cell>
      </row>
      <row id="text_content">
        <cell id="text_content_label" labelfor="text_content" text="`Text Content`*"/>
        <cell id="text_content">
          <ele id="text_content"/>
        </cell>
      </row>
      <row id="priority">
        <cell id="priority_label" labelfor="priority" text="`Priority`"/>
        <cell id="priority">
          <ele id="priority"/>
        </cell>
      </row>
    </grid>
    <grid id="BGeneral" class="DialogButtons">
      <row id="BGeneral">
        <cell id="BGeneral">
          <ele id="Add"/>
        </cell>
        <cell id="MiscBGeneral" class="MiscButtons">
          <ele id="Cancel"/>
        </cell>
      </row>
    </grid>
  </lay>
</wnd>
