<wnd xmlns="http://www.asoft.ru/xsl/ai" id="OurDebitAccountTransactionList" class="generic" title="`Debit Transactions`">
	<types from="BASETYPE"/>
	<types from="BALOONTYPE"/>
	<types from="AUTHORIZERTYPE"/>
	<types from="PAYGATETYPE"/>
	<types from="BASICSITETYPE"/>
	<types from="MULTIMEDIATYPE"/>
	<types from="FISCALTYPE"/>
	<types from="BaloonautoTYPE"/>
	<ele class="ScrollableGrid" id="OurDebitAccountTransactionList" title="`Debit Transactions`" handle="CLICK">
		<ele class="column" type="ID" id="id" bind="id" title="`ID`" aid="c1" visibility="no"/>
		<ele class="column" type="UTCTIMESTAMP" id="DateArc" bind="DateArc" title="`Modification time`" aid="c2"/>
		<ele class="column" type="MONEY" id="amount" bind="amount" title="`Amount`" aid="c3"/>
		<ele class="column" type="CACHE_FLOW" id="cache_flow" bind="cache_flow" title="`Cache Flow`" aid="c4"/>
		<ele class="column" type="TEXT" id="reason" bind="reason" title="`Reason`" aid="c5"/>
	</ele>

	<!-- Default buttons buttons -->
	<ele class="SimpleButton" id="AddAccountTransaction" label="`Add Transaction`" shortcut="#45" autofocus="no"/>
	<ele class="SimpleButton" id="Delete" label="`Delete`" shortcut="#46" autofocus="no"/>

	<!-- Custom buttons -->

	<!-- Custom actions -->
	<a id="OurDebitAccountTransactionList">
		<evt aid="refresh" type="WM_REFRESH" id="OurDebitAccountTransactionList"/>
	</a>

	<!-- Default actions -->
	<a id="AddAccountTransaction">
		<evt aid="c1" type="WM_PUSH" src="/act/Baloon/AccountTransactionAdd" args=""/>
	</a>
	<a id="Delete">
		<call aid="c1" meth="/srv/Baloon/AccountTransaction/Delete" args="id=OurDebitAccountTransactionList.id "/>
		<evt aid="c2" type="WM_REFRESH" id="OurDebitAccountTransactionList"/>
	</a>
	<a id="Init">
		<call aid="c1" meth="/srv/Baloon/AccountTransaction/OurDebitAccountTransactionListGet" args="" rets="OurDebitAccountTransactionList=*"/>
	</a>
	<lay>
		<grid id="g1" class="ListGrid" heightLimit="100%">
			<row id="r1">
				<cell id="buttonsCell" class="MainButtonsCell">
					<ele id="AddAccountTransaction"/>
					<ele id="Delete"/>
				</cell>
			</row>
			<row id="r2">
				<cell id="OurDebitAccountTransactionList_cell" colspan="2"><ele id="OurDebitAccountTransactionList"/></cell>
			</row>
		</grid>
	</lay>
</wnd>
