<wnd xmlns="http://www.asoft.ru/xsl/ai" id="PaidServiceHourList" class="generic" title="`Paid Service Hours`">
	<types from="BASETYPE"/>
	<types from="BALOONTYPE"/>
	<types from="AUTHORIZERTYPE"/>
	<types from="PAYGATETYPE"/>
	<types from="BASICSITETYPE"/>
	<types from="MULTIMEDIATYPE"/>
	<types from="FISCALTYPE"/>
	<types from="BaloonautoTYPE"/>
	<ele class="ScrollableGrid" id="PaidServiceHourList" title="`Paid Service Hours`" handle="CLICK">
		<ele class="column" type="ID" id="id" bind="id" title="`ID`" aid="c1" visibility="no"/>
		<ele class="column" type="STR255" id="name" bind="name" title="`Name`" aid="c2"/>
		<ele class="column" type="ENABLED_STATUS" id="status" bind="status" title="`status`" aid="c3"/>
	</ele>

	<!-- Default buttons buttons -->
	<ele class="SimpleButton" id="AddPaidServiceHour" label="`Add Paid Service Hour`" shortcut="#45" autofocus="no"/>
	<ele class="SimpleButton" id="Delete" label="`Delete`" shortcut="#46" autofocus="no"/>

	<!-- Custom buttons -->
	<ele class="SimpleButton" id="MassAdd" autofocus="no" label="`Mass Add`" />

	<!-- Custom actions -->
	<a id="MassAdd">
		<evt aid="c1" type="WM_PUSH" src="/act/Baloon/PaidServiceHourMassAdd" args=""/>
	</a>

	<!-- Default actions -->
	<a id="PaidServiceHourList">
		<evt aid="c1" type="WM_PUSH" src="/act/Baloon/PaidServiceHourFolder" args="id=event.id "/>
	</a>
	<a id="AddPaidServiceHour">
		<evt aid="c1" type="WM_PUSH" src="/act/Baloon/PaidServiceHourAdd" args=""/>
	</a>
	<a id="Delete">
		<call aid="c1" meth="/srv/Baloon/PaidServiceHour/Delete" args="id=PaidServiceHourList.id "/>
		<evt aid="c2" type="WM_REFRESH" id="PaidServiceHourList"/>
	</a>
	<a id="Init">
		<call aid="c1" meth="/srv/Baloon/PaidServiceHour/PaidServiceHourListGet" args="" rets="PaidServiceHourList=*"/>
	</a>
	<lay>
		<grid id="g1" class="ListGrid" heightLimit="100%">
			<row id="r1">
				<cell id="buttonsCell" class="MainButtonsCell">
					<ele id="AddPaidServiceHour"/>
					<ele id="Delete"/>
					<ele id="MassAdd"/>
				</cell>
			</row>
			<row id="r2">
				<cell id="PaidServiceHourList_cell" colspan="2"><ele id="PaidServiceHourList"/></cell>
			</row>
		</grid>
	</lay>
</wnd>
