<?xml version="1.0" encoding="UTF-8"?>
<wnd xmlns="http://www.asoft.ru/xsl/ai" id="PaidServiceHourGet" class="generic" title="`Paid Service Hour`">
  <types from="BASETYPE"/>
  <types from="BALOONTYPE"/>
  <types from="BaloonautoTYPE"/>
  <ele id="id" class="Spinner" type="ID" visibility="vo" title="`ID`"/>
  <ele id="name" class="StringInput" type="STR255" visibility="vo" title="`Name`" nontull="yes"/>
  <ele id="status" class="DropDown" type="ENABLED_STATUS" visibility="vo"/>
  <ele id="Edit" class="SimpleButton" autofocus="no" shortcut="#45" label="`Edit`"/>
  <ele id="Cancel" class="SimpleButton" autofocus="no" misc="yes" shortcut="#27" label="`Cancel`"/>
  <a id="Init">
    <call aid="c1" meth="/srv/Baloon/PaidServiceHour/Get" args="id " rets="name status "/>
    <ele aid="InitWinTitle" id="PaidServiceHourGet" title="`Paid Service Hour`"/>
  </a>
  <a id="Edit" shortcut="#45">
    <evt type="WM_PUSH" aid="c1" src="/act/Baloon/PaidServiceHourUpdate" args="id name status "/>
  </a>
  <a id="Cancel" shortcut="#27">
    <evt aid="ret" type="WM_BACK" args="id name status " step="1"/>
  </a>
  <lay>
    <grid id="General">
      <row id="id">
        <cell id="id_label" labelfor="id" text="`ID`"/>
        <cell id="id">
          <ele id="id"/>
        </cell>
      </row>
      <row id="name">
        <cell id="name_label" labelfor="name" text="`Name`"/>
        <cell id="name">
          <ele id="name"/>
        </cell>
      </row>
      <row id="status">
        <cell id="status" colspan="2">
          <ele id="status"/>
        </cell>
      </row>
    </grid>
    <grid id="BGeneral" class="DialogButtons">
      <row id="BGeneral">
        <cell id="BGeneral">
          <ele id="Edit"/>
        </cell>
        <cell id="MiscBGeneral" class="MiscButtons">
          <ele id="Cancel"/>
        </cell>
      </row>
    </grid>
  </lay>
</wnd>
