<?xml version="1.0" encoding="UTF-8"?>
<wnd xmlns="http://www.asoft.ru/xsl/ai" id="PaidServiceHourUpdate" class="generic" title="`Paid Service Hour`">
  <types from="BASETYPE"/>
  <types from="BALOONTYPE"/>
  <types from="BaloonautoTYPE"/>
  <ele id="id" class="Spinner" type="ID" visibility="vo" title="`ID`"/>
  <ele id="name" class="StringInput" type="STR255" title="`Name`" nontull="yes"/>
  <ele id="status" class="DropDown" type="ENABLED_STATUS"/>
  <ele id="Update" class="SimpleButton" autofocus="no" dependsOn="status " shortcut="Ctrl+S" primary="yes" label="`Update`"/>
  <ele id="Cancel" class="SimpleButton" autofocus="no" misc="yes" shortcut="#27" label="`Cancel`"/>
  <a id="Init">
    <ele aid="c1" id="id"/>
    <ele aid="InitWinTitle" id="PaidServiceHourUpdate" title="`Paid Service Hour`"/>
  </a>
  <a id="Update" primary="yes" shortcut="Ctrl+S">
    <call aid="c1" meth="/srv/Baloon/PaidServiceHour/Update" args="id name status " rets=""/>
    <evt aid="ret" type="WM_BACK" args="id name status " step="1"/>
  </a>
  <a id="Cancel" shortcut="#27">
    <evt aid="ret" type="WM_BACK" args="id name status " step="1"/>
  </a>
  <lay>
    <grid id="General">
      <row id="id">
        <cell id="id_label" labelfor="id" text="`ID`"/>
        <cell id="id">
          <ele id="id"/>
        </cell>
      </row>
      <row id="name">
        <cell id="name_label" labelfor="name" text="`Name`"/>
        <cell id="name">
          <ele id="name"/>
        </cell>
      </row>
      <row id="status">
        <cell id="status" colspan="2">
          <ele id="status"/>
        </cell>
      </row>
    </grid>
    <grid id="BGeneral" class="DialogButtons">
      <row id="BGeneral">
        <cell id="BGeneral">
          <ele id="Update"/>
        </cell>
        <cell id="MiscBGeneral" class="MiscButtons">
          <ele id="Cancel"/>
        </cell>
      </row>
    </grid>
  </lay>
</wnd>
