<wnd xmlns="http://www.asoft.ru/xsl/ai" id="PaidServiceHourFolder" class="TabBar" title="``">
	<types from="BASETYPE"/>
	<types from="BALOONTYPE"/>
	<types from="AUTHORIZERTYPE"/>
	<types from="PAYGATETYPE"/>
	<types from="BASICSITETYPE"/>
	<types from="MULTIMEDIATYPE"/>
	<types from="FISCALTYPE"/>
	<types from="BaloonautoTYPE"/>
	<ele class="Tab" id="PaidServiceHourGet" label="`General`"/>
	<ele class="Tab" id="PaidServiceList" label="`Price List`"/>
	<ele class="widget" id="WorkSpace"/>
	<ele id="id"  type="ID" title="`ID`" />
	<ele id="name"  type="STR255" title="`Name`" nontull="yes" />
	<ele id="status"  type="ENABLED_STATUS" />
	<a id="Init">
		<ele id="PaidServiceHourFolder" aid="WndTitle" title="`Paid Service Hour`"/>
	</a>
	<a id="PaidServiceHourGet">
		<ele aid="c1" id="WorkSpace" src="/act/Baloon/PaidServiceHourGet" args="id " selected="yes"/>
	</a>
	<a id="PaidServiceList">
		<ele aid="c1" id="WorkSpace" src="/act/Baloon/PaidServiceList" args="hourid=id "/>
	</a>
	<lay>
		<grid id="gt" class="TabBarGrid">
			<row id="rt">
				<cell id="ct1" class="TabBarCell">
					<ele id="PaidServiceHourGet"/>
					<ele id="PaidServiceList"/>
				</cell>
			</row>
		</grid>
		<grid id="gw" class="TabBarBody" heightLimit="100%">
			<row id="rw">
				<cell id="cw">
					<ele id="WorkSpace" />
				</cell>
			</row>
		</grid>
	</lay>
</wnd>
