<?xml version="1.0" encoding="UTF-8"?>
<wnd xmlns="http://www.asoft.ru/xsl/ai" id="PartnerAdministratorUpdate" class="generic" title="`Partner Adminstrator`">
  <types from="BASETYPE"/>
  <types from="BALOONTYPE"/>
  <types from="BaloonautoTYPE"/>
  <ele id="auserTokenID" class="Int64Input" type="LONG" visibility="link" handle="CLICK" ref="Users" project="Authorizer" title="`Id of the token`" min="-1000"/>
  <ele id="auserTokenName" class="StringInput" type="LONG_NAME" visibility="link" handle="CLICK" ref="Users" project="Authorizer" title="`Name of the token`" some_attr="some attr"/>
  <ele id="fullname" class="StringInput" type="STR255" title="`Fullname`"/>
  <ele id="Update" class="SimpleButton" autofocus="no" dependsOn="fullname " shortcut="Ctrl+S" primary="yes" label="`Update`"/>
  <ele id="Cancel" class="SimpleButton" autofocus="no" misc="yes" shortcut="#27" label="`Cancel`"/>
  <a id="Init">
    <ele aid="c1" id="auser"/>
    <call aid="r1" meth="/srv/Authorizer/Users/Get" args="TenantID=TenantID TokenID=auserTokenID " rets="auserTokenID=TokenID auserTokenName=TokenName " when="(TenantID != 'none:') and (auserTokenID != 'none:')"/>
    <ele id="auserTokenName" aid="noneauserTokenName" value="none:" when="(TenantID = 'none:') or (auserTokenID = 'none:')"/>
    <ele aid="InitWinTitle" id="PartnerAdministratorUpdate" title="`Partner Adminstrator`"/>
  </a>
  <a id="Update" primary="yes" shortcut="Ctrl+S">
    <call aid="c1" meth="/srv/Baloon/PartnerAdministrator/Update" args="auserTokenID fullname " rets=""/>
    <evt aid="ret" type="WM_BACK" args="auserTokenID fullname " step="1"/>
  </a>
  <a id="Cancel" shortcut="#27">
    <evt aid="ret" type="WM_BACK" args="auserTokenID fullname " step="1"/>
  </a>
  <a id="auserTokenID_CLICK">
    <evt type="WM_PUSH" aid="1.1" src="/act/Authorizer/UsersFolder" args="TokenID=auserTokenID TokenName=auserTokenName "/>
  </a>
  <a id="auserTokenName_CLICK">
    <evt type="WM_PUSH" aid="1.2" src="/act/Authorizer/UsersFolder" args="TokenID=auserTokenID TokenName=auserTokenName "/>
  </a>
  <lay>
    <grid id="General">
      <row id="auser">
        <cell id="auser_label" labelfor="auserTokenID" text="`ID`"/>
        <cell id="auser">
          <ele id="auserTokenID"/>
          <ele id="auserTokenName"/>
        </cell>
      </row>
      <row id="fullname">
        <cell id="fullname_label" labelfor="fullname" text="`Fullname`*"/>
        <cell id="fullname">
          <ele id="fullname"/>
        </cell>
      </row>
    </grid>
    <grid id="BGeneral" class="DialogButtons">
      <row id="BGeneral">
        <cell id="BGeneral">
          <ele id="Update"/>
        </cell>
        <cell id="MiscBGeneral" class="MiscButtons">
          <ele id="Cancel"/>
        </cell>
      </row>
    </grid>
  </lay>
</wnd>
