<wnd xmlns="http://www.asoft.ru/xsl/ai" id="PartnerContractFolder" class="TabBar" title="``">
	<types from="BASETYPE"/>
	<types from="BALOONTYPE"/>
	<types from="AUTHORIZERTYPE"/>
	<types from="PAYGATETYPE"/>
	<types from="BASICSITETYPE"/>
	<types from="MULTIMEDIATYPE"/>
	<types from="FISCALTYPE"/>
	<types from="BaloonautoTYPE"/>
	<ele class="Tab" id="PartnerContractGet" label="`General`"/>
	<ele class="widget" id="WorkSpace"/>
	<ele id="id"  type="ID" title="`ID`" />
	<ele id="partnerid"  type="ID" title="`ID`" __Ref="Partner" ref="Partner" />
	<ele id="barcode"  type="STR" title="`Contract Number`" />
	<ele id="start_date"  type="DATE" title="`Start Date`" />
	<ele id="end_date"  type="DATE" title="`End Date`" />
	<ele id="benefit_type"  type="PARTNER_BENEFIT" title="`Benefit Type`" />
	<ele id="benefit_amount"  type="DECIMAL" title="`Benefit Amount`" />
	<a id="Init">
		<ele id="PartnerContractFolder" aid="WndTitle" title="`Partner Contract`"/>
	</a>
	<a id="PartnerContractGet">
		<ele aid="c1" id="WorkSpace" src="/act/Baloon/PartnerContractGet" args="id " selected="yes"/>
	</a>
	<lay>
		<grid id="gt" class="TabBarGrid">
			<row id="rt">
				<cell id="ct1" class="TabBarCell">
					<ele id="PartnerContractGet"/>
				</cell>
			</row>
		</grid>
		<grid id="gw" class="TabBarBody" heightLimit="100%">
			<row id="rw">
				<cell id="cw">
					<ele id="WorkSpace" />
				</cell>
			</row>
		</grid>
	</lay>
</wnd>
