<?xml version="1.0" encoding="UTF-8"?>
<wnd xmlns="http://www.asoft.ru/xsl/ai" id="PartnerOrderUpdate" class="generic" title="`Order`">
  <types from="BASETYPE"/>
  <types from="BALOONTYPE"/>
  <types from="BaloonautoTYPE"/>
  <ele id="id" class="Spinner" type="ID" visibility="vo" title="`ID`"/>
  <ele id="partnerid" class="Spinner" type="ID" handle="CHANGE" ref="Partner" title="`ID`" hidden="yes"/>
  <ele id="partnername" class="StringInput" type="STR" visibility="ro" ref="Partner" title="`Name`"/>
  <ele id="Choose_partner" class="popup" label="`...`" handle="CLICK" src="" rets="partnerid=id partnername=name " align="Choose_partner"/>
  <ele id="initial_cost" class="MoneyInput" type="MONEY" title="`Initial Cost`" hidden="yes"/>
  <ele id="discount" class="MoneyInput" type="DECIMAL" title="`Discount`" hidden="yes"/>
  <ele id="total_cost" class="MoneyInput" type="MONEY" title="`Total Cost`" hidden="yes"/>
  <ele id="week_tariffid" class="Spinner" type="ID" handle="CHANGE" ref="WeekTariff" title="`Tariff ID`" hidden="yes"/>
  <ele id="Choose_week_tariff" class="popup" label="`...`" handle="CLICK" src="" rets="week_tariffid=id " align="Choose_week_tariff"/>
  <ele id="Update" class="SimpleButton" autofocus="no" dependsOn="partnerid initial_cost discount total_cost week_tariffid " shortcut="Ctrl+S" primary="yes" label="`Update`"/>
  <ele id="Cancel" class="SimpleButton" autofocus="no" misc="yes" shortcut="#27" label="`Cancel`"/>
  <a id="Init">
    <ele aid="c1" id="id"/>
    <call aid="r1" meth="/srv/Baloon/Partner/Get" args="id=partnerid " rets="partnername=name " when="(partnerid != 'none:')"/>
    <ele id="partnername" aid="nonepartnername" value="none:" when="(partnerid = 'none:')"/>
    <call aid="r2" meth="/srv/Baloon/WeekTariff/Get" args="id=week_tariffid " rets="" when="(week_tariffid != 'none:')"/>
    <ele aid="InitWinTitle" id="PartnerOrderUpdate" title="`Order`"/>
  </a>
  <a id="Update" primary="yes" shortcut="Ctrl+S">
    <call aid="c1" meth="/srv/Baloon/PartnerOrder/Update" args="id partnerid initial_cost discount total_cost week_tariffid " rets=""/>
    <evt aid="ret" type="WM_BACK" args="id partnerid initial_cost discount total_cost week_tariffid " step="1"/>
  </a>
  <a id="Cancel" shortcut="#27">
    <evt aid="ret" type="WM_BACK" args="id partnerid initial_cost discount total_cost week_tariffid " step="1"/>
  </a>
  <a id="partnerid_CHANGE">
    <call meth="/srv/Baloon/Partner/Get" args="id=partnerid " rets="partnername=name " aid="c1"/>
  </a>
  <a id="week_tariffid_CHANGE">
    <call meth="/srv/Baloon/WeekTariff/Get" args="id=week_tariffid " rets="" aid="c1"/>
  </a>
  <a id="Choose_partner">
    <evt aid="popupcall" type="WM_POPUP" id="Choose_partner" src="/act/Baloon/PartnerListPopup" args="" rets=""/>
  </a>
  <a id="Choose_week_tariff">
    <evt aid="popupcall" type="WM_POPUP" id="Choose_week_tariff" src="/act/Baloon/WeekTariffListPopup" args="" rets=""/>
  </a>
  <lay>
    <grid id="General">
      <row id="id">
        <cell id="id_label" labelfor="id" text="`ID`"/>
        <cell id="id">
          <ele id="id"/>
        </cell>
      </row>
    </grid>
    <grid id="BGeneral" class="DialogButtons">
      <row id="BGeneral">
        <cell id="BGeneral">
          <ele id="Update"/>
        </cell>
        <cell id="MiscBGeneral" class="MiscButtons">
          <ele id="Cancel"/>
        </cell>
      </row>
    </grid>
  </lay>
</wnd>
