<wnd xmlns="http://www.asoft.ru/xsl/ai" id="PartnerAccountList" class="generic" title="`Accounts`">
	<types from="BASETYPE"/>
	<types from="BALOONTYPE"/>
	<types from="AUTHORIZERTYPE"/>
	<types from="PAYGATETYPE"/>
	<types from="BASICSITETYPE"/>
	<types from="MULTIMEDIATYPE"/>
	<types from="FISCALTYPE"/>
	<types from="BaloonautoTYPE"/>
	<ele id="partnerid" type="ID"/>
	<ele class="ScrollableGrid" id="PartnerAccountList" title="`Accounts`" handle="CLICK">
		<ele class="column" type="ID" id="id" bind="id" title="`ID`" aid="c1" visibility="no"/>
		<ele class="column" type="STR" id="partnername" bind="partnername" title="`Partner`" aid="c2" alias="partner"/>
		<ele class="column" type="STR" id="name" bind="name" title="`Name`" aid="c3"/>
		<ele class="column" type="ACCOUNT_TYPE" id="atype" bind="atype" title="`Account Type`" aid="c4"/>
		<ele class="column" type="MONEY" id="amount" bind="amount" title="`Amount`" aid="c5"/>
		<ele class="column" type="BLOCK_STATUS" id="status" bind="status" title="`Status`" aid="c6"/>
	</ele>

	<!-- Default buttons buttons -->
	<ele class="SimpleButton" id="AddPartnerAccount" label="`Add Account`" shortcut="#45" autofocus="no"/>
	<ele class="SimpleButton" id="Delete" label="`Delete`" shortcut="#46" autofocus="no"/>

	<!-- Custom buttons -->

	<!-- Custom actions -->

	<!-- Default actions -->
	<a id="PartnerAccountList">
		<evt aid="c1" type="WM_PUSH" src="/act/Baloon/PartnerAccountFolder" args="id=event.id "/>
	</a>
	<a id="AddPartnerAccount">
		<evt aid="c1" type="WM_PUSH" src="/act/Baloon/PartnerAccountAdd" args="partnerid "/>
	</a>
	<a id="Delete">
		<call aid="c1" meth="/srv/Baloon/PartnerAccount/Delete" args="id=PartnerAccountList.id "/>
		<evt aid="c2" type="WM_REFRESH" id="PartnerAccountList"/>
	</a>
	<a id="Init">
		<call aid="c1" meth="/srv/Baloon/PartnerAccount/PartnerAccountListGet" args="partnerid " rets="PartnerAccountList=*"/>
	</a>
	<lay>
		<grid id="g1" class="ListGrid" heightLimit="100%">
			<row id="r1">
				<cell id="buttonsCell" class="MainButtonsCell">
					<ele id="AddPartnerAccount"/>
					<ele id="Delete"/>
				</cell>
			</row>
			<row id="r2">
				<cell id="PartnerAccountList_cell" colspan="2"><ele id="PartnerAccountList"/></cell>
			</row>
		</grid>
	</lay>
</wnd>
