<wnd xmlns="http://www.asoft.ru/xsl/ai" id="PartnerAccountListPopup" class="generic" title="`Accounts`">
	<types from="BASETYPE"/>
	<types from="BALOONTYPE"/>
	<types from="AUTHORIZERTYPE"/>
	<types from="PAYGATETYPE"/>
	<types from="BASICSITETYPE"/>
	<types from="MULTIMEDIATYPE"/>
	<types from="FISCALTYPE"/>
	<types from="BaloonautoTYPE"/>
	<ele id="partnerid" type="ID"/>
	<ele class="ScrollableGrid" id="PartnerAccountList" title="`Accounts`" handle="CLICK">
		<ele class="column" type="ID" id="id" bind="id" title="`ID`" aid="c1" visibility="no"/>
		<ele class="column" type="STR" id="partnername" bind="partnername" title="`Partner`" aid="c2" alias="partner"/>
		<ele class="column" type="STR" id="name" bind="name" title="`Name`" aid="c3"/>
		<ele class="column" type="ACCOUNT_TYPE" id="atype" bind="atype" title="`Account Type`" aid="c4"/>
		<ele class="column" type="MONEY" id="amount" bind="amount" title="`Amount`" aid="c5"/>
		<ele class="column" type="BLOCK_STATUS" id="status" bind="status" title="`Status`" aid="c6"/>
	</ele>
	<a id="PartnerAccountList">
		<evt aid="c1" type="WM_POPUP_RETURN" args="id=event.id partnername=event.partnername name=event.name atype=event.atype amount=event.amount status=event.status " />
	</a>
	<a id="Init">
		<call aid="c1" meth="/srv/Baloon/PartnerAccount/PartnerAccountListGet" args="partnerid " rets="PartnerAccountList=*"/>
	</a>
	<lay>
		<grid id="g1" heightLimit="100%">
			<row id="r1">
				<cell id="PartnerAccountList_cell" colspan="2"><ele id="PartnerAccountList"/></cell>
			</row>
		</grid>
	</lay>
</wnd>
