<?xml version="1.0" encoding="UTF-8"?>
<wnd xmlns="http://www.asoft.ru/xsl/ai" id="PartnerContractUpdate" class="generic" title="`Partner Contract`">
  <types from="BASETYPE"/>
  <types from="BALOONTYPE"/>
  <types from="BaloonautoTYPE"/>
  <ele id="id" class="Spinner" type="ID" visibility="vo" title="`ID`"/>
  <ele id="partnerid" class="Spinner" type="ID" handle="CHANGE" ref="Partner" title="`ID`" hidden="yes"/>
  <ele id="partnername" class="StringInput" type="STR" visibility="ro" ref="Partner" title="`Name`"/>
  <ele id="Choose_partner" class="popup" label="`...`" handle="CLICK" src="" rets="partnerid=id partnername=name " align="Choose_partner"/>
  <ele id="barcode" class="StringInput" type="STR" title="`Contract Number`"/>
  <ele id="start_date" class="DateInput" type="DATE" title="`Start Date`"/>
  <ele id="end_date" class="DateInput" type="DATE" title="`End Date`"/>
  <ele id="benefit_type" class="DropDown" type="PARTNER_BENEFIT" title="`Benefit Type`"/>
  <ele id="benefit_amount" class="MoneyInput" type="DECIMAL" title="`Benefit Amount`"/>
  <ele id="Update" class="SimpleButton" autofocus="no" dependsOn="partnerid barcode start_date end_date benefit_type benefit_amount " shortcut="Ctrl+S" primary="yes" label="`Update`"/>
  <ele id="Cancel" class="SimpleButton" autofocus="no" misc="yes" shortcut="#27" label="`Cancel`"/>
  <a id="Init">
    <ele aid="c1" id="id"/>
    <call aid="r1" meth="/srv/Baloon/Partner/Get" args="id=partnerid " rets="partnername=name " when="(partnerid != 'none:')"/>
    <ele id="partnername" aid="nonepartnername" value="none:" when="(partnerid = 'none:')"/>
    <ele aid="InitWinTitle" id="PartnerContractUpdate" title="`Partner Contract`"/>
  </a>
  <a id="Update" primary="yes" shortcut="Ctrl+S">
    <call aid="c1" meth="/srv/Baloon/PartnerContract/Update" args="id partnerid barcode start_date end_date benefit_type benefit_amount " rets=""/>
    <evt aid="ret" type="WM_BACK" args="id partnerid barcode start_date end_date benefit_type benefit_amount " step="1"/>
  </a>
  <a id="Cancel" shortcut="#27">
    <evt aid="ret" type="WM_BACK" args="id partnerid barcode start_date end_date benefit_type benefit_amount " step="1"/>
  </a>
  <a id="partnerid_CHANGE">
    <call meth="/srv/Baloon/Partner/Get" args="id=partnerid " rets="partnername=name " aid="c1"/>
  </a>
  <a id="Choose_partner">
    <evt aid="popupcall" type="WM_POPUP" id="Choose_partner" src="/act/Baloon/PartnerListPopup" args="" rets=""/>
  </a>
  <lay>
    <grid id="General">
      <row id="id">
        <cell id="id_label" labelfor="id" text="`ID`"/>
        <cell id="id">
          <ele id="id"/>
        </cell>
      </row>
      <row id="partner">
        <cell id="partner_label" labelfor="partnerid" text="`Partner`*"/>
        <cell id="partner">
          <ele id="partnername"/>
          <ele id="Choose_partner"/>
        </cell>
      </row>
      <row id="barcode">
        <cell id="barcode_label" labelfor="barcode" text="`Contract Number`*"/>
        <cell id="barcode">
          <ele id="barcode"/>
        </cell>
      </row>
      <row id="start_date">
        <cell id="start_date_label" labelfor="start_date" text="`Start Date`*"/>
        <cell id="start_date">
          <ele id="start_date"/>
        </cell>
      </row>
      <row id="end_date">
        <cell id="end_date_label" labelfor="end_date" text="`End Date`*"/>
        <cell id="end_date">
          <ele id="end_date"/>
        </cell>
      </row>
      <row id="benefit_type">
        <cell id="benefit_type_label" labelfor="benefit_type" text="`Benefit Type`"/>
        <cell id="benefit_type">
          <ele id="benefit_type"/>
        </cell>
      </row>
      <row id="benefit_amount">
        <cell id="benefit_amount_label" labelfor="benefit_amount" text="`Benefit Amount`*"/>
        <cell id="benefit_amount">
          <ele id="benefit_amount"/>
        </cell>
      </row>
    </grid>
    <grid id="BGeneral" class="DialogButtons">
      <row id="BGeneral">
        <cell id="BGeneral">
          <ele id="Update"/>
        </cell>
        <cell id="MiscBGeneral" class="MiscButtons">
          <ele id="Cancel"/>
        </cell>
      </row>
    </grid>
  </lay>
</wnd>
