<?xml version="1.0" encoding="UTF-8"?>
<wnd xmlns="http://www.asoft.ru/xsl/ai" id="PartnerOrderGet" class="generic" title="`Order`">
  <types from="BASETYPE"/>
  <types from="BALOONTYPE"/>
  <types from="BaloonautoTYPE"/>
  <ele id="id" class="Spinner" type="ID" visibility="vo" title="`ID`"/>
  <ele id="Edit" class="SimpleButton" autofocus="no" shortcut="#45" label="`Edit`"/>
  <ele id="Cancel" class="SimpleButton" autofocus="no" misc="yes" shortcut="#27" label="`Cancel`"/>
  <a id="Init">
    <call aid="c1" meth="/srv/Baloon/PartnerOrder/Get" args="id " rets=""/>
    <ele aid="InitWinTitle" id="PartnerOrderGet" title="`Order`"/>
  </a>
  <a id="Edit" shortcut="#45">
    <evt type="WM_PUSH" aid="c1" src="/act/Baloon/PartnerOrderUpdate" args="id "/>
  </a>
  <a id="Cancel" shortcut="#27">
    <evt aid="ret" type="WM_BACK" args="id " step="1"/>
  </a>
  <lay>
    <grid id="General">
      <row id="id">
        <cell id="id_label" labelfor="id" text="`ID`"/>
        <cell id="id">
          <ele id="id"/>
        </cell>
      </row>
    </grid>
    <grid id="BGeneral" class="DialogButtons">
      <row id="BGeneral">
        <cell id="BGeneral">
          <ele id="Edit"/>
        </cell>
        <cell id="MiscBGeneral" class="MiscButtons">
          <ele id="Cancel"/>
        </cell>
      </row>
    </grid>
  </lay>
</wnd>
