<?xml version="1.0" encoding="UTF-8"?>
<wnd xmlns="http://www.asoft.ru/xsl/ai" id="PersonOrderAdd" class="generic" title="`New Order`">
  <types from="BASETYPE"/>
  <types from="BALOONTYPE"/>
  <types from="BaloonautoTYPE"/>
  <ele id="id" class="Spinner" type="ID" visibility="vo" title="`Order ID`"/>
  <ele id="email" class="StringInput" type="EMAIL" title="`Email`"/>
  <ele id="last_name" class="StringInput" type="STR" title="`Last Name`"/>
  <ele id="first_name" class="StringInput" type="STR" title="`First Name`"/>
  <ele id="adate" class="DateInput" type="DATE" title="`Date`"/>
  <ele id="identifier_service_rulename" class="StringInput" type="STR" title="`Identifier Service Rule Settings`"/>
  <ele id="qty" class="Spinner" type="INT" title="`Number Of Tickets`"/>
  <ele id="amount" class="MoneyInput" type="MONEY" visibility="vo" title="`Amount`"/>
  <ele id="Save" class="SimpleButton" autofocus="no" dependsOn="adate identifier_service_rulename qty " label="`Make Payment`"/>
  <ele id="PlaceFree" class="SimpleButton" autofocus="no" dependsOn="adate qty " label="`Free`"/>
  <ele id="Cancel" class="SimpleButton" autofocus="no" misc="yes" ret="yes" label="`Cancel`"/>
  <a id="Init">
    <ele aid="InitWinTitle" id="PersonOrderAdd" title="`New Order`"/>
  </a>
  <a id="Save">
    <call aid="c1" meth="/srv/Baloon/PersonOrder/Place_API" args="email last_name first_name adate identifier_service_rulename qty" rets="id amount"/>
    <evt type="WM_PUSH" aid="c2" src="/act/Baloon/AddPersonInvoice" args="orderid=id adate identifier_service_rulename qty amount "/>
  </a>
  <a id="PlaceFree">
    <call aid="c1" meth="/srv/Baloon/PersonOrder/PlaceFree" args="email last_name first_name adate identifier_service_rulename qty" rets="id amount"/>
  </a>
  <a id="Cancel">
    <evt aid="ret" type="WM_BACK" args="id email last_name first_name adate identifier_service_rulename qty amount " step="1"/>
  </a>
  <lay>
    <grid id="General">
      <row id="id">
        <cell id="id_label" labelfor="id" text="`Order ID`"/>
        <cell id="id">
          <ele id="id"/>
        </cell>
      </row>
      <row id="email">
        <cell id="email_label" labelfor="email" text="`Email`"/>
        <cell id="email">
          <ele id="email"/>
        </cell>
      </row>
      <row id="last_name">
        <cell id="last_name_label" labelfor="last_name" text="`Last Name`"/>
        <cell id="last_name">
          <ele id="last_name"/>
        </cell>
      </row>
      <row id="first_name">
        <cell id="first_name_label" labelfor="first_name" text="`First Name`"/>
        <cell id="first_name">
          <ele id="first_name"/>
        </cell>
      </row>
      <row id="adate">
        <cell id="adate_label" labelfor="adate" text="`Date`*"/>
        <cell id="adate">
          <ele id="adate"/>
        </cell>
      </row>
      <row id="identifier_service_rulename">
        <cell id="identifier_service_rulename_label" labelfor="identifier_service_rulename" text="`Identifier Service Rule Settings`*"/>
        <cell id="identifier_service_rulename">
          <ele id="identifier_service_rulename"/>
        </cell>
      </row>
      <row id="qty">
        <cell id="qty_label" labelfor="qty" text="`Number Of Tickets`*"/>
        <cell id="qty">
          <ele id="qty"/>
        </cell>
      </row>
      <row id="amount">
        <cell id="amount_label" labelfor="amount" text="`Amount`"/>
        <cell id="amount">
          <ele id="amount"/>
        </cell>
      </row>
    </grid>
    <grid id="BGeneral" class="DialogButtons">
      <row id="BGeneral">
        <cell id="BGeneral">
          <ele id="Save"/>
          <ele id="PlaceFree"/>
        </cell>
        <cell id="MiscBGeneral" class="MiscButtons">
          <ele id="Cancel"/>
        </cell>
      </row>
    </grid>
  </lay>
</wnd>
