<wnd xmlns="http://www.asoft.ru/xsl/ai" id="PersonOrderList" class="generic" title="`Покупка через мобильное приложение`">
	<types from="BASETYPE"/>
	<types from="BALOONTYPE"/>
	<types from="AUTHORIZERTYPE"/>
	<types from="PAYGATETYPE"/>
	<types from="BASICSITETYPE"/>
	<types from="MULTIMEDIATYPE"/>
	<types from="FISCALTYPE"/>
	<types from="BaloonautoTYPE"/>
	<ele id="personid" type="ID"/>
	<ele id="sitecode" type="STR"/>
	<ele class="ScrollableGrid" id="PersonOrderList" title="`Покупка через мобильное приложение`" handle="CLICK">
		<ele class="column" type="ID" id="id" bind="id" title="`Order ID`" aid="c1" visibility="no"/>
		<ele class="column" type="EMAIL" id="personemail" bind="personemail" title="`Email`" aid="c2" alias="person"/>
		<ele class="column" type="UTCTIMESTAMP" id="filed_at" bind="filed_at" title="`Filed At`" aid="c3"/>
		<ele class="column" type="MONEY" id="amount" bind="amount" title="`Amount`" aid="c4"/>
		<ele class="column" type="PERSON_ORDER_STATUS" id="status" bind="status" title="`Status`" aid="c5"/>
		<ele class="column" type="STR" id="sitename" bind="sitename" title="`Order Site`" aid="c6" alias="site"/>
	</ele>

	<!-- Default buttons buttons -->
	<ele class="SimpleButton" id="Delete" label="`Delete`" shortcut="#46" autofocus="no"/>

	<!-- Custom buttons -->
	<ele class="SimpleButton" id="PlaceCableCarOrder" autofocus="no" label="`New Cable Car Order`" />
	<ele class="SimpleButton" id="PlaceRinkTicketOrder" autofocus="no" label="`One Day Tickets`" />
	<ele class="SimpleButton" id="SynchronizePayments" autofocus="no" label="`Synchronize Payments`" />

	<!-- Custom actions -->
	<a id="PlaceCableCarOrder">
		<evt aid="c1" type="WM_PUSH" src="/act/Baloon/PersonOrderAdd" args=""/>
	</a>
	<a id="PlaceRinkTicketOrder">
		<evt aid="c1" type="WM_PUSH" src="/act/Baloon/RinkPersonOrderAdd" args=""/>
	</a>
	<a id="SynchronizePayments">
		<call aid="c1" meth="/srv/Baloon/PersonOrder/RequestPaymentStatus" args=""/>
		<call aid="c2" meth="/srv/Baloon/PersonOrder/PersonOrderListGet" args="" rets="PersonOrderList=*"/>
		<evt aid="refresh" type="WM_REFRESH" id="PersonOrderList"/>
	</a>

	<!-- Default actions -->
	<a id="PersonOrderList">
		<evt aid="c1" type="WM_PUSH" src="/act/Baloon/PersonOrderFolder" args="id=event.id "/>
	</a>
	<a id="Delete">
		<call aid="c1" meth="/srv/Baloon/PersonOrder/Delete" args="id=PersonOrderList.id "/>
		<evt aid="c2" type="WM_REFRESH" id="PersonOrderList"/>
	</a>
	<a id="Init">
		<call aid="c1" meth="/srv/Baloon/PersonOrder/PersonOrderListGet" args="personid sitecode " rets="PersonOrderList=*"/>
	</a>
	<lay>
		<grid id="g1" class="ListGrid" heightLimit="100%">
			<row id="r1">
				<cell id="buttonsCell" class="MainButtonsCell">
					<ele id="Delete"/>
					<ele id="PlaceCableCarOrder"/>
					<ele id="PlaceRinkTicketOrder"/>
					<ele id="SynchronizePayments"/>
				</cell>
			</row>
			<row id="r2">
				<cell id="PersonOrderList_cell" colspan="2"><ele id="PersonOrderList"/></cell>
			</row>
		</grid>
	</lay>
</wnd>
