<?xml version="1.0" encoding="UTF-8"?>
<wnd xmlns="http://www.asoft.ru/xsl/ai" id="PersonOrderFiscalDocGet" class="generic" title="`Fiscal Document`">
  <types from="BASETYPE"/>
  <types from="BALOONTYPE"/>
  <types from="BaloonautoTYPE"/>
  <ele id="orderid" class="Spinner" type="ID" visibility="link" handle="CLICK" ref="PersonOrder" title="`Order ID`" hidden="yes"/>
  <ele id="fiscal_docid" class="Spinner" type="ID" visibility="link" handle="CLICK" ref="FiscalDoc" project="Fiscal" title="`Fiscal Document ID`" hidden="yes"/>
  <ele id="fiscal_docbarcode" class="StringInput" type="STR" visibility="link" handle="CLICK" ref="FiscalDoc" project="Fiscal" title="`External Number`" unique="FiscalDoc_unique_barcode"/>
  <ele id="Edit" class="SimpleButton" autofocus="no" shortcut="#45" label="`Edit`"/>
  <ele id="Cancel" class="SimpleButton" autofocus="no" misc="yes" shortcut="#27" label="`Cancel`"/>
  <a id="Init">
    <call aid="c1" meth="/srv/Baloon/PersonOrderFiscalDoc/Get" args="orderid fiscal_docid " rets=""/>
    <call aid="r1" meth="/srv/Baloon/PersonOrder/Get" args="id=orderid " rets="" when="(orderid != 'none:')"/>
    <call aid="r2" meth="/srv/Fiscal/FiscalDoc/Get" args="id=fiscal_docid " rets="fiscal_docbarcode=barcode " when="(fiscal_docid != 'none:')"/>
    <ele id="fiscal_docbarcode" aid="nonefiscal_docbarcode" value="none:" when="(fiscal_docid = 'none:')"/>
    <ele aid="InitWinTitle" id="PersonOrderFiscalDocGet" title="`Fiscal Document`"/>
  </a>
  <a id="Edit" shortcut="#45">
    <evt type="WM_PUSH" aid="c1" src="/act/Baloon/PersonOrderFiscalDocUpdate" args="orderid fiscal_docid fiscal_docbarcode "/>
  </a>
  <a id="Cancel" shortcut="#27">
    <evt aid="ret" type="WM_BACK" args="orderid fiscal_docid " step="1"/>
  </a>
  <a id="orderid_CLICK">
    <evt type="WM_PUSH" aid="1.1" src="/act/Baloon/PersonOrderFolder" args="id=orderid "/>
  </a>
  <a id="fiscal_docid_CLICK">
    <evt type="WM_PUSH" aid="2.1" src="/act/Fiscal/FiscalDocFolder" args="id=fiscal_docid barcode=fiscal_docbarcode "/>
  </a>
  <a id="fiscal_docbarcode_CLICK">
    <evt type="WM_PUSH" aid="2.2" src="/act/Fiscal/FiscalDocFolder" args="id=fiscal_docid barcode=fiscal_docbarcode "/>
  </a>
  <lay>
    <grid id="General">
      <row id="order">
        <cell id="order_label" labelfor="orderid" text="`Person Order`"/>
        <cell id="order">
          <ele id="orderid"/>
        </cell>
      </row>
      <row id="fiscal_doc">
        <cell id="fiscal_doc_label" labelfor="fiscal_docid" text="`Fiscal Document`"/>
        <cell id="fiscal_doc">
          <ele id="fiscal_docbarcode"/>
        </cell>
      </row>
    </grid>
    <grid id="BGeneral" class="DialogButtons">
      <row id="BGeneral">
        <cell id="BGeneral">
          <ele id="Edit"/>
        </cell>
        <cell id="MiscBGeneral" class="MiscButtons">
          <ele id="Cancel"/>
        </cell>
      </row>
    </grid>
  </lay>
</wnd>
