<wnd xmlns="http://www.asoft.ru/xsl/ai" id="PersonOrderListPopup" class="generic" title="`Покупка через мобильное приложение`">
	<types from="BASETYPE"/>
	<types from="BALOONTYPE"/>
	<types from="AUTHORIZERTYPE"/>
	<types from="PAYGATETYPE"/>
	<types from="BASICSITETYPE"/>
	<types from="MULTIMEDIATYPE"/>
	<types from="FISCALTYPE"/>
	<types from="BaloonautoTYPE"/>
	<ele id="personid" type="ID"/>
	<ele id="sitecode" type="STR"/>
	<ele class="ScrollableGrid" id="PersonOrderList" title="`Покупка через мобильное приложение`" handle="CLICK">
		<ele class="column" type="ID" id="id" bind="id" title="`Order ID`" aid="c1" visibility="no"/>
		<ele class="column" type="EMAIL" id="personemail" bind="personemail" title="`Email`" aid="c2" alias="person"/>
		<ele class="column" type="UTCTIMESTAMP" id="filed_at" bind="filed_at" title="`Filed At`" aid="c3"/>
		<ele class="column" type="MONEY" id="amount" bind="amount" title="`Amount`" aid="c4"/>
		<ele class="column" type="PERSON_ORDER_STATUS" id="status" bind="status" title="`Status`" aid="c5"/>
		<ele class="column" type="STR" id="sitename" bind="sitename" title="`Order Site`" aid="c6" alias="site"/>
	</ele>
	<a id="PersonOrderList">
		<evt aid="c1" type="WM_POPUP_RETURN" args="id=event.id personemail=event.personemail filed_at=event.filed_at amount=event.amount status=event.status sitename=event.sitename " />
	</a>
	<a id="Init">
		<call aid="c1" meth="/srv/Baloon/PersonOrder/PersonOrderListGet" args="personid sitecode " rets="PersonOrderList=*"/>
	</a>
	<lay>
		<grid id="g1" heightLimit="100%" exclude="AddPersonOrder">
			<row id="r1">
				<cell id="PersonOrderList_cell" colspan="2"><ele id="PersonOrderList"/></cell>
			</row>
		</grid>
	</lay>
</wnd>
