<?xml version="1.0" encoding="UTF-8"?>
<wnd xmlns="http://www.asoft.ru/xsl/ai" id="PersonGet" class="generic" title="`Client`">
  <types from="BASETYPE"/>
  <types from="BALOONTYPE"/>
  <types from="BaloonautoTYPE"/>
  <ele id="id" class="Spinner" type="ID" visibility="vo" title="`Person ID`" group="General"/>
  <ele id="userTokenID" class="Int64Input" type="LONG" visibility="link" handle="CLICK" ref="Users" project="Authorizer" title="`Id of the token`" group="General" min="-1000"/>
  <ele id="userTokenName" class="StringInput" type="LONG_NAME" visibility="link" handle="CLICK" ref="Users" project="Authorizer" title="`Name of the token`" group="General" some_attr="some attr"/>
  <ele id="last_name" class="StringInput" type="STR" visibility="vo" title="`Last Name`" group="General"/>
  <ele id="first_name" class="StringInput" type="STR" visibility="vo" title="`First Name`" group="General"/>
  <ele id="middle_name" class="StringInput" type="STR" visibility="vo" title="`Middle Name`" group="General"/>
  <ele id="birthdate" class="DateInput" type="DATE" visibility="vo" title="`Birthdate`" group="General"/>
  <ele id="gender" class="DropDown" type="GENDER" visibility="vo" title="`Gender`" group="General"/>
  <ele id="phone" class="StringInput" type="STR" visibility="vo" title="`Phone`" group="General"/>
  <ele id="email" class="StringInput" type="EMAIL" visibility="vo" title="`Email`" group="General"/>
  <ele id="regcode" class="StringInput" type="STR" visibility="vo" title="`Registration Code`"/>
  <ele id="last_sync" class="DateTimeInput" type="UTCTIMESTAMP" visibility="vo" title="`Last Sync`"/>
  <ele id="oid" class="StringInput" type="STR" visibility="vo" title="`OID`" unique="Person_oid_unique"/>
  <ele id="Edit" class="SimpleButton" autofocus="no" label="`Edit`"/>
  <ele id="AddToContour" class="SimpleButton" autofocus="no" label="`Sync to PAS`"/>
  <ele id="MakePayment" class="SimpleButton" autofocus="no" label="`Make payment`"/>
  <ele id="Cancel" class="SimpleButton" autofocus="no" misc="yes" shortcut="#27" label="`Cancel`"/>
  <a id="Init">
    <call aid="c1" meth="/srv/Baloon/Person/Get" args="id" rets="id userTokenID userTokenName=TokenName last_name first_name middle_name birthdate gender phone email regcode last_sync oid"/>
    <call aid="r1" meth="/srv/Authorizer/Users/Get" args="TenantID=TenantID TokenID=userTokenID " rets="userTokenID=TokenID userTokenName=TokenName " when="(TenantID != 'none:') and (userTokenID != 'none:')"/>
    <ele id="userTokenName" aid="noneuserTokenName" value="none:" when="(TenantID = 'none:') or (userTokenID = 'none:')"/>
    <ele aid="InitWinTitle" id="PersonGet" title="`Client`"/>
  </a>
  <a id="Edit">
    <evt type="WM_PUSH" aid="c1" src="/act/Baloon/PersonUpdate" args="id userTokenID userTokenName last_name first_name middle_name birthdate gender phone email regcode last_sync oid"/>
  </a>
  <a id="AddToContour">
    <call aid="c1" meth="/srv/Baloon/Person/AddToContour" args="id" rets=""/>
  </a>
  <a id="MakePayment">
    <evt type="WM_PUSH" aid="c1" src="/act/Baloon/AddIdentifierInvoice" args="personid=id personemail=email"/>
  </a>
  <a id="Cancel" shortcut="#27">
    <evt aid="ret" type="WM_BACK" args="id userTokenID last_name first_name middle_name birthdate gender phone email regcode last_sync oid " step="1"/>
  </a>
  <a id="userTokenID_CLICK">
    <evt type="WM_PUSH" aid="1.1" src="/act/Authorizer/UsersFolder" args="TokenID=userTokenID TokenName=userTokenName "/>
  </a>
  <a id="userTokenName_CLICK">
    <evt type="WM_PUSH" aid="1.2" src="/act/Authorizer/UsersFolder" args="TokenID=userTokenID TokenName=userTokenName "/>
  </a>
  <lay>
    <grid id="General">
      <row id="id">
        <cell id="id_label" labelfor="id" text="`Person ID`"/>
        <cell id="id">
          <ele id="id"/>
        </cell>
      </row>
      <row id="user">
        <cell id="user_label" labelfor="userTokenID" text="`User`"/>
        <cell id="user">
          <ele id="userTokenID"/>
          <ele id="userTokenName"/>
        </cell>
      </row>
      <row id="last_name">
        <cell id="last_name_label" labelfor="last_name" text="`Last Name`"/>
        <cell id="last_name">
          <ele id="last_name"/>
        </cell>
      </row>
      <row id="first_name">
        <cell id="first_name_label" labelfor="first_name" text="`First Name`"/>
        <cell id="first_name">
          <ele id="first_name"/>
        </cell>
      </row>
      <row id="middle_name">
        <cell id="middle_name_label" labelfor="middle_name" text="`Middle Name`"/>
        <cell id="middle_name">
          <ele id="middle_name"/>
        </cell>
      </row>
      <row id="birthdate">
        <cell id="birthdate_label" labelfor="birthdate" text="`Birthdate`"/>
        <cell id="birthdate">
          <ele id="birthdate"/>
        </cell>
      </row>
      <row id="gender">
        <cell id="gender_label" labelfor="gender" text="`Gender`"/>
        <cell id="gender">
          <ele id="gender"/>
        </cell>
      </row>
      <row id="phone">
        <cell id="phone_label" labelfor="phone" text="`Phone`"/>
        <cell id="phone">
          <ele id="phone"/>
        </cell>
      </row>
      <row id="email">
        <cell id="email_label" labelfor="email" text="`Email`"/>
        <cell id="email">
          <ele id="email"/>
        </cell>
      </row>
      <row id="regcode">
        <cell id="regcode_label" labelfor="regcode" text="`Registration Code`"/>
        <cell id="regcode">
          <ele id="regcode"/>
        </cell>
      </row>
      <row id="last_sync">
        <cell id="last_sync_label" labelfor="last_sync" text="`Last Sync`"/>
        <cell id="last_sync">
          <ele id="last_sync"/>
        </cell>
      </row>
      <row id="oid">
        <cell id="oid_label" labelfor="oid" text="`OID`"/>
        <cell id="oid">
          <ele id="oid"/>
        </cell>
      </row>
    </grid>
    <grid id="BGeneral" class="DialogButtons">
      <row id="BGeneral">
        <cell id="BGeneral">
          <ele id="Edit"/>
          <ele id="AddToContour"/>
          <ele id="MakePayment"/>
        </cell>
        <cell id="MiscBGeneral" class="MiscButtons">
          <ele id="Cancel"/>
        </cell>
      </row>
    </grid>
  </lay>
</wnd>
