<?xml version="1.0" encoding="UTF-8"?>
<wnd xmlns="http://www.asoft.ru/xsl/ai" id="PersonIdentifierOrderlineGet" class="generic" title="`Orderline`">
  <types from="BASETYPE"/>
  <types from="BALOONTYPE"/>
  <types from="BaloonautoTYPE"/>
  <ele id="orderid" class="Spinner" type="ID" visibility="link" handle="CLICK" ref="PersonOrder" hidden="yes" title="`Order ID`"/>
  <ele id="identifierid" class="Spinner" type="ID" visibility="link" handle="CLICK" ref="Identifier" hidden="yes" title="`ID`" group="General"/>
  <ele id="identifiercode" class="StringInput" type="STR50" visibility="link" handle="CLICK" ref="Identifier" title="`Card Code`" unique="code_unique"/>
  <ele id="price" class="MoneyInput" type="MONEY" visibility="vo" title="`Price`"/>
  <ele id="service_rulename" class="StringInput" type="STR255" visibility="link" handle="CLICK" ref="SpdServiceRule" title="`Правило оформления`"/>
  <ele id="make_transaction" class="Checkbox" type="BOOL" visibility="vo" title="`Make Spd Transaction`"/>
  <ele id="Edit" class="SimpleButton" autofocus="no" shortcut="#45" label="`Edit`"/>
  <ele id="Cancel" class="SimpleButton" autofocus="no" misc="yes" shortcut="#27" label="`Cancel`"/>
  <a id="Init">
    <call aid="c1" meth="/srv/Baloon/PersonIdentifierOrderline/Get" args="orderid identifierid " rets="price service_rulename make_transaction "/>
    <call aid="r1" meth="/srv/Baloon/PersonOrder/Get" args="id=orderid " rets="" when="(orderid != 'none:')"/>
    <call aid="r2" meth="/srv/Baloon/Identifier/Get" args="id=identifierid " rets="identifiercode=code " when="(identifierid != 'none:')"/>
    <ele id="identifiercode" aid="noneidentifiercode" value="none:" when="(identifierid = 'none:')"/>
    <call aid="r3" meth="/srv/Baloon/SpdServiceRule/Get" args="name=service_rulename " rets="" when="(service_rulename != 'none:')"/>
    <ele aid="InitWinTitle" id="PersonIdentifierOrderlineGet" title="`Orderline`"/>
  </a>
  <a id="Edit" shortcut="#45">
    <evt type="WM_PUSH" aid="c1" src="/act/Baloon/PersonIdentifierOrderlineUpdate" args="orderid identifierid identifiercode price service_rulename make_transaction "/>
  </a>
  <a id="Cancel" shortcut="#27">
    <evt aid="ret" type="WM_BACK" args="orderid identifierid price service_rulename make_transaction " step="1"/>
  </a>
  <a id="orderid_CLICK">
    <evt type="WM_PUSH" aid="1.1" src="/act/Baloon/PersonOrderFolder" args="id=orderid "/>
  </a>
  <a id="identifierid_CLICK">
    <evt type="WM_PUSH" aid="2.1" src="/act/Baloon/IdentifierFolder" args="id=identifierid code=identifiercode "/>
  </a>
  <a id="identifiercode_CLICK">
    <evt type="WM_PUSH" aid="2.2" src="/act/Baloon/IdentifierFolder" args="id=identifierid code=identifiercode "/>
  </a>
  <a id="service_rulename_CLICK">
    <evt type="WM_PUSH" aid="3.1" src="/act/Baloon/SpdServiceRuleFolder" args="name=service_rulename "/>
  </a>
  <lay>
    <grid id="General">
      <row id="order">
        <cell id="order_label" labelfor="orderid" text="`Order`"/>
        <cell id="order">
          <ele id="orderid"/>
        </cell>
      </row>
      <row id="identifier">
        <cell id="identifier_label" labelfor="identifierid" text="`Identifier`"/>
        <cell id="identifier">
          <ele id="identifiercode"/>
        </cell>
      </row>
      <row id="price">
        <cell id="price_label" labelfor="price" text="`Price`"/>
        <cell id="price">
          <ele id="price"/>
        </cell>
      </row>
      <row id="service_rule">
        <cell id="service_rule_label" labelfor="service_rulename" text="`Package`"/>
        <cell id="service_rule">
          <ele id="service_rulename"/>
        </cell>
      </row>
      <row id="make_transaction">
        <cell id="make_transaction_label" labelfor="make_transaction" text="`Make Spd Transaction`"/>
        <cell id="make_transaction">
          <ele id="make_transaction"/>
        </cell>
      </row>
    </grid>
    <grid id="BGeneral" class="DialogButtons">
      <row id="BGeneral">
        <cell id="BGeneral">
          <ele id="Edit"/>
        </cell>
        <cell id="MiscBGeneral" class="MiscButtons">
          <ele id="Cancel"/>
        </cell>
      </row>
    </grid>
  </lay>
</wnd>
