<wnd xmlns="http://www.asoft.ru/xsl/ai" id="PersonList" class="generic" title="`Clients`">
	<types from="BASETYPE"/>
	<types from="BALOONTYPE"/>
	<types from="AUTHORIZERTYPE"/>
	<types from="PAYGATETYPE"/>
	<types from="BASICSITETYPE"/>
	<types from="MULTIMEDIATYPE"/>
	<types from="FISCALTYPE"/>
	<types from="BaloonautoTYPE"/>
	<ele id="userTokenID" type="LONG"/>
	<ele class="ScrollableGrid" id="PersonList" title="`Clients`" handle="CLICK">
		<ele class="column" type="ID" id="id" bind="id" title="`Person ID`" aid="c1" visibility="no"/>
		<ele class="column" type="STR" id="last_name" bind="last_name" title="`Last Name`" aid="c2"/>
		<ele class="column" type="STR" id="first_name" bind="first_name" title="`First Name`" aid="c3"/>
		<ele class="column" type="STR" id="middle_name" bind="middle_name" title="`Middle Name`" aid="c4"/>
		<ele class="column" type="DATE" id="birthdate" bind="birthdate" title="`Birthdate`" aid="c5"/>
		<ele class="column" type="GENDER" id="gender" bind="gender" title="`Gender`" aid="c6"/>
		<ele class="column" type="STR" id="phone" bind="phone" title="`Phone`" aid="c7"/>
		<ele class="column" type="EMAIL" id="email" bind="email" title="`Email`" aid="c8"/>
		<ele class="column" type="DATE" id="registered_at" bind="registered_at" title="`Registration Date`" aid="c9"/>
	</ele>

	<!-- Default buttons buttons -->

	<!-- Custom buttons -->
	<ele class="SimpleButton" id="AddPerson" autofocus="no" label="`AddPerson`"  visibility="no"/>
	<ele class="SimpleButton" id="NewClientCreate" autofocus="no" label="`Register`" />

	<!-- Custom actions -->
	<a id="AddPerson">
		<evt aid="refresh" type="WM_REFRESH" id="PersonList"/>
	</a>
	<a id="NewClientCreate">
		<evt aid="c1" type="WM_PUSH" src="/act/Baloon/NewClientCreate" args=""/>
	</a>

	<!-- Default actions -->
	<a id="PersonList">
		<evt aid="c1" type="WM_PUSH" src="/act/Baloon/PersonFolder" args="id=event.id "/>
	</a>
	<a id="Init">
		<call aid="c1" meth="/srv/Baloon/Person/PersonListGet" args="userTokenID " rets="PersonList=*"/>
	</a>
	<lay>
		<grid id="g1" class="ListGrid" heightLimit="100%">
			<row id="r1">
				<cell id="buttonsCell" class="MainButtonsCell">
					<ele id="AddPerson"/>
					<ele id="NewClientCreate"/>
				</cell>
			</row>
			<row id="r2">
				<cell id="PersonList_cell" colspan="2"><ele id="PersonList"/></cell>
			</row>
		</grid>
	</lay>
</wnd>
