<wnd xmlns="http://www.asoft.ru/xsl/ai" id="PushNotificationFolder" class="TabBar" title="``">
	<types from="BASETYPE"/>
	<types from="BALOONTYPE"/>
	<types from="AUTHORIZERTYPE"/>
	<types from="PAYGATETYPE"/>
	<types from="BASICSITETYPE"/>
	<types from="MULTIMEDIATYPE"/>
	<types from="FISCALTYPE"/>
	<types from="BaloonautoTYPE"/>
	<ele class="Tab" id="PushNotificationGet" label="`General`"/>
	<ele class="widget" id="WorkSpace"/>
	<ele id="id"  type="ID" title="`Идентификатор записи`" />
	<ele id="token"  type="STR255" title="`Токен устройства`" />
	<ele id="token_type"  type="INT" title="`Тип токена устройства`" />
	<ele id="first_name"  type="STR255" title="`Имя`" />
	<ele id="last_name"  type="STR255" title="`Фамилия`" />
	<ele id="middle_name"  type="STR255" title="`Отчество`" />
	<ele id="description"  type="TEXT" title="`Описание устройства`" />
	<ele id="enabled"  type="ENABLED_STATUS" title="`Активно`" />
	<ele id="valid_from"  type="UTCTIMESTAMP" title="`Регистрация`" />
	<ele id="last_register"  type="UTCTIMESTAMP" title="`Последнее изменение`" />
	<a id="Init">
		<ele id="PushNotificationFolder" aid="WndTitle" title="`Регистрации`"/>
	</a>
	<a id="PushNotificationGet">
		<ele aid="c1" id="WorkSpace" src="/act/Baloon/PushNotificationGet" args="id " selected="yes"/>
	</a>
	<lay>
		<grid id="gt" class="TabBarGrid">
			<row id="rt">
				<cell id="ct1" class="TabBarCell">
					<ele id="PushNotificationGet"/>
				</cell>
			</row>
		</grid>
		<grid id="gw" class="TabBarBody" heightLimit="100%">
			<row id="rw">
				<cell id="cw">
					<ele id="WorkSpace" />
				</cell>
			</row>
		</grid>
	</lay>
</wnd>
