<wnd xmlns="http://www.asoft.ru/xsl/ai" id="SpdServiceRuleEnabledListPopup" class="generic" title="`Правила оформления`">
	<types from="BASETYPE"/>
	<types from="BALOONTYPE"/>
	<types from="AUTHORIZERTYPE"/>
	<types from="PAYGATETYPE"/>
	<types from="BASICSITETYPE"/>
	<types from="MULTIMEDIATYPE"/>
	<types from="FISCALTYPE"/>
	<types from="BaloonautoTYPE"/>
	<ele class="ScrollableGrid" id="SpdServiceRuleEnabledList" title="`Правила оформления`" handle="CLICK">
		<ele class="column" type="STR255" id="name" bind="name" title="`Правило оформления`" aid="c1"/>
		<ele class="column" type="ID" id="extid" bind="extid" title="`External ID`" aid="c2"/>
		<ele class="column" type="ID" id="extcode" bind="extcode" title="`External Code`" aid="c3"/>
		<ele class="column" type="TEXT" id="comment" bind="comment" title="`Comment`" aid="c4"/>
	</ele>
	<a id="SpdServiceRuleEnabledList">
		<evt aid="c1" type="WM_POPUP_RETURN" args="name=event.name extid=event.extid extcode=event.extcode comment=event.comment " />
	</a>
	<a id="Init">
		<call aid="c1" meth="/srv/Baloon/SpdServiceRule/SpdServiceRuleEnabledListGet" args="" rets="SpdServiceRuleEnabledList=*"/>
	</a>
	<lay>
		<grid id="g1" heightLimit="100%">
			<row id="r1">
				<cell id="SpdServiceRuleEnabledList_cell" colspan="2"><ele id="SpdServiceRuleEnabledList"/></cell>
			</row>
		</grid>
	</lay>
</wnd>
