<wnd xmlns="http://www.asoft.ru/xsl/ai" id="SpdServiceRuleListPopup" class="generic" title="`Правила оформления`">
	<types from="BASETYPE"/>
	<types from="BALOONTYPE"/>
	<types from="AUTHORIZERTYPE"/>
	<types from="PAYGATETYPE"/>
	<types from="BASICSITETYPE"/>
	<types from="MULTIMEDIATYPE"/>
	<types from="FISCALTYPE"/>
	<types from="BaloonautoTYPE"/>
	<ele class="ScrollableGrid" id="SpdServiceRuleList" title="`Правила оформления`" handle="CLICK">
		<ele class="column" type="STR255" id="name" bind="name" title="`Правило оформления`" aid="c1"/>
		<ele class="column" type="ENABLED_STATUS" id="enabled" bind="enabled" title="`Enabled`" aid="c2"/>
		<ele class="column" type="ID" id="extid" bind="extid" title="`External ID`" aid="c3"/>
		<ele class="column" type="ID" id="extcode" bind="extcode" title="`External Code`" aid="c4"/>
		<ele class="column" type="TEXT" id="comment" bind="comment" title="`Comment`" aid="c5"/>
		<ele class="column" type="MONEY" id="package_cost" bind="package_cost" title="`Цена пакета`" aid="c6"/>
	</ele>
	<a id="SpdServiceRuleList">
		<evt aid="c1" type="WM_POPUP_RETURN" args="name=event.name enabled=event.enabled extid=event.extid extcode=event.extcode comment=event.comment package_cost=event.package_cost " />
	</a>
	<a id="Init">
		<call aid="c1" meth="/srv/Baloon/SpdServiceRule/SpdServiceRuleListGet" args="" rets="SpdServiceRuleList=*"/>
	</a>
	<lay>
		<grid id="g1" heightLimit="100%">
			<row id="r1">
				<cell id="SpdServiceRuleList_cell" colspan="2"><ele id="SpdServiceRuleList"/></cell>
			</row>
		</grid>
	</lay>
</wnd>
