<?xml version="1.0" encoding="UTF-8"?>
<wnd xmlns="http://www.asoft.ru/xsl/ai" id="WeekTariffGet" class="generic" title="`Week Tariff`">
  <types from="BASETYPE"/>
  <types from="BALOONTYPE"/>
  <types from="BaloonautoTYPE"/>
  <ele id="id" class="Spinner" type="ID" visibility="vo" title="`Tariff ID`"/>
  <ele id="agroupid" class="Spinner" type="ID" visibility="link" handle="CLICK" ref="WeekTariffGroup" title="`ID`" hidden="yes"/>
  <ele id="agroupname" class="StringInput" type="STR" visibility="link" handle="CLICK" ref="WeekTariffGroup" title="`Name`"/>
  <ele id="week_day" class="DropDown" type="WEEK_DAY" visibility="vo" title="`Week Day`"/>
  <ele id="time_from" class="TimeInput" type="TIME" visibility="vo" title="`Time From`"/>
  <ele id="time_upto" class="TimeInput" type="TIME" visibility="vo" title="`Time To`"/>
  <ele id="price" class="MoneyInput" type="MONEY" visibility="vo" title="`Price`"/>
  <ele id="pricetype" class="Checkbox" type="BOOL" visibility="vo" title="`Do Not Use Price`"/>
  <ele id="free" class="Spinner" type="INT" visibility="vo" title="`Free Values`"/>
  <ele id="total" class="Spinner" type="INT" visibility="vo" title="`Total Values`"/>
  <ele id="counttype" class="Checkbox" type="BOOL" visibility="vo" title="`Do Not Use Counter`"/>
  <ele id="external_name" class="StringInput" type="STR" visibility="vo" title="`External Name`"/>
  <ele id="identifier_rulename" class="StringInput" type="STR255" visibility="link" handle="CLICK" ref="IdentifierRule" title="`Правило пользования`"/>
  <ele id="service_rulename" class="StringInput" type="STR255" visibility="link" handle="CLICK" ref="SpdServiceRule" title="`Правило оформления`"/>
  <ele id="identifier_categoryname" class="StringInput" type="STR255" visibility="link" handle="CLICK" ref="IdentifierCategory" title="`Название категории`"/>
  <ele id="ratename" class="StringInput" type="STR255" visibility="link" handle="CLICK" ref="IdentifierRate" title="`Тариф`"/>
  <ele id="enabled" class="Checkbox" type="BOOL" visibility="vo" title="`Enabled`"/>
  <ele id="Edit" class="SimpleButton" autofocus="no" shortcut="#45" label="`Edit`"/>
  <ele id="Cancel" class="SimpleButton" autofocus="no" misc="yes" shortcut="#27" label="`Cancel`"/>
  <a id="Init">
    <call aid="c1" meth="/srv/Baloon/WeekTariff/Get" args="id " rets="agroupid week_day time_from time_upto price pricetype free total counttype external_name identifier_rulename service_rulename identifier_categoryname ratename enabled "/>
    <call aid="r1" meth="/srv/Baloon/WeekTariffGroup/Get" args="id=agroupid " rets="agroupname=name " when="(agroupid != 'none:')"/>
    <ele id="agroupname" aid="noneagroupname" value="none:" when="(agroupid = 'none:')"/>
    <call aid="r2" meth="/srv/Baloon/IdentifierRule/Get" args="name=identifier_rulename " rets="" when="(identifier_rulename != 'none:')"/>
    <call aid="r3" meth="/srv/Baloon/SpdServiceRule/Get" args="name=service_rulename " rets="" when="(service_rulename != 'none:')"/>
    <call aid="r4" meth="/srv/Baloon/IdentifierCategory/Get" args="name=identifier_categoryname " rets="" when="(identifier_categoryname != 'none:')"/>
    <call aid="r5" meth="/srv/Baloon/IdentifierRate/Get" args="name=ratename " rets="" when="(ratename != 'none:')"/>
    <ele aid="InitWinTitle" id="WeekTariffGet" title="`Week Tariff`"/>
  </a>
  <a id="Edit" shortcut="#45">
    <evt type="WM_PUSH" aid="c1" src="/act/Baloon/WeekTariffUpdate" args="id agroupid agroupname week_day time_from time_upto price pricetype free total counttype external_name identifier_rulename service_rulename identifier_categoryname ratename enabled "/>
  </a>
  <a id="Cancel" shortcut="#27">
    <evt aid="ret" type="WM_BACK" args="id agroupid week_day time_from time_upto price pricetype free total counttype external_name identifier_rulename service_rulename identifier_categoryname ratename enabled " step="1"/>
  </a>
  <a id="agroupid_CLICK">
    <evt type="WM_PUSH" aid="1.1" src="/act/Baloon/WeekTariffGroupFolder" args="id=agroupid name=agroupname "/>
  </a>
  <a id="agroupname_CLICK">
    <evt type="WM_PUSH" aid="1.2" src="/act/Baloon/WeekTariffGroupFolder" args="id=agroupid name=agroupname "/>
  </a>
  <a id="identifier_rulename_CLICK">
    <evt type="WM_PUSH" aid="2.1" src="/act/Baloon/IdentifierRuleFolder" args="name=identifier_rulename "/>
  </a>
  <a id="service_rulename_CLICK">
    <evt type="WM_PUSH" aid="3.1" src="/act/Baloon/SpdServiceRuleFolder" args="name=service_rulename "/>
  </a>
  <a id="identifier_categoryname_CLICK">
    <evt type="WM_PUSH" aid="4.1" src="/act/Baloon/IdentifierCategoryFolder" args="name=identifier_categoryname "/>
  </a>
  <a id="ratename_CLICK">
    <evt type="WM_PUSH" aid="5.1" src="/act/Baloon/IdentifierRateFolder" args="name=ratename "/>
  </a>
  <lay>
    <grid id="General">
      <row id="id">
        <cell id="id_label" labelfor="id" text="`Tariff ID`"/>
        <cell id="id">
          <ele id="id"/>
        </cell>
      </row>
      <row id="agroup">
        <cell id="agroup_label" labelfor="agroupid" text="`Tariff Group`"/>
        <cell id="agroup">
          <ele id="agroupname"/>
        </cell>
      </row>
      <row id="week_day">
        <cell id="week_day_label" labelfor="week_day" text="`Week Day`"/>
        <cell id="week_day">
          <ele id="week_day"/>
        </cell>
      </row>
      <row id="time_from">
        <cell id="time_from_label" labelfor="time_from" text="`Time From`"/>
        <cell id="time_from">
          <ele id="time_from"/>
        </cell>
      </row>
      <row id="time_upto">
        <cell id="time_upto_label" labelfor="time_upto" text="`Time To`"/>
        <cell id="time_upto">
          <ele id="time_upto"/>
        </cell>
      </row>
      <row id="price">
        <cell id="price_label" labelfor="price" text="`Price`"/>
        <cell id="price">
          <ele id="price"/>
        </cell>
      </row>
      <row id="pricetype">
        <cell id="pricetype_label" labelfor="pricetype" text="`Do Not Use Price`"/>
        <cell id="pricetype">
          <ele id="pricetype"/>
        </cell>
      </row>
      <row id="free">
        <cell id="free_label" labelfor="free" text="`Free Values`"/>
        <cell id="free">
          <ele id="free"/>
        </cell>
      </row>
      <row id="total">
        <cell id="total_label" labelfor="total" text="`Total Values`"/>
        <cell id="total">
          <ele id="total"/>
        </cell>
      </row>
      <row id="counttype">
        <cell id="counttype_label" labelfor="counttype" text="`Do Not Use Counter`"/>
        <cell id="counttype">
          <ele id="counttype"/>
        </cell>
      </row>
      <row id="external_name">
        <cell id="external_name_label" labelfor="external_name" text="`External Name`"/>
        <cell id="external_name">
          <ele id="external_name"/>
        </cell>
      </row>
      <row id="identifier_rule">
        <cell id="identifier_rule_label" labelfor="identifier_rulename" text="`Identifier Rule`"/>
        <cell id="identifier_rule">
          <ele id="identifier_rulename"/>
        </cell>
      </row>
      <row id="service_rule">
        <cell id="service_rule_label" labelfor="service_rulename" text="`Service Rule`"/>
        <cell id="service_rule">
          <ele id="service_rulename"/>
        </cell>
      </row>
      <row id="identifier_category">
        <cell id="identifier_category_label" labelfor="identifier_categoryname" text="`Category`"/>
        <cell id="identifier_category">
          <ele id="identifier_categoryname"/>
        </cell>
      </row>
      <row id="rate">
        <cell id="rate_label" labelfor="ratename" text="`Tariff`"/>
        <cell id="rate">
          <ele id="ratename"/>
        </cell>
      </row>
      <row id="enabled">
        <cell id="enabled_label" labelfor="enabled" text="`Enabled`"/>
        <cell id="enabled">
          <ele id="enabled"/>
        </cell>
      </row>
    </grid>
    <grid id="BGeneral" class="DialogButtons">
      <row id="BGeneral">
        <cell id="BGeneral">
          <ele id="Edit"/>
        </cell>
        <cell id="MiscBGeneral" class="MiscButtons">
          <ele id="Cancel"/>
        </cell>
      </row>
    </grid>
  </lay>
</wnd>
