<wnd xmlns="http://www.asoft.ru/xsl/ai" id="WeekTariffList" class="generic" title="`Week Tariffs`">
	<types from="BASETYPE"/>
	<types from="BALOONTYPE"/>
	<types from="AUTHORIZERTYPE"/>
	<types from="PAYGATETYPE"/>
	<types from="BASICSITETYPE"/>
	<types from="MULTIMEDIATYPE"/>
	<types from="FISCALTYPE"/>
	<types from="BaloonautoTYPE"/>
	<ele id="agroupid" type="ID"/>
	<ele class="ScrollableGrid" id="WeekTariffList" title="`Week Tariffs`" handle="CLICK">
		<ele class="column" type="ID" id="id" bind="id" title="`Tariff ID`" aid="c1" visibility="no"/>
		<ele class="column" type="STR" id="agroupname" bind="agroupname" title="`Name`" aid="c2" alias="agroup"/>
		<ele class="column" type="WEEK_DAY" id="week_day" bind="week_day" title="`Week Day`" aid="c3"/>
		<ele class="column" type="TIME" id="time_from" bind="time_from" title="`Time From`" aid="c4"/>
		<ele class="column" type="TIME" id="time_upto" bind="time_upto" title="`Time To`" aid="c5"/>
		<ele class="column" type="MONEY" id="price" bind="price" title="`Price`" aid="c6"/>
		<ele class="column" type="BOOL" id="pricetype" bind="pricetype" title="`Do Not Use Price`" aid="c7"/>
		<ele class="column" type="INT" id="free" bind="free" title="`Free Values`" aid="c8"/>
		<ele class="column" type="INT" id="total" bind="total" title="`Total Values`" aid="c9"/>
		<ele class="column" type="BOOL" id="counttype" bind="counttype" title="`Do Not Use Counter`" aid="c10"/>
		<ele class="column" type="STR" id="external_name" bind="external_name" title="`External Name`" aid="c11"/>
		<ele class="column" type="BOOL" id="enabled" bind="enabled" title="`Enabled`" aid="c12"/>
		<ele class="column" type="STR255" id="identifier_rulename" bind="identifier_rulename" title="`Правило пользования`" aid="c13" alias="identifier_rule"/>
		<ele class="column" type="STR255" id="service_rulename" bind="service_rulename" title="`Правило оформления`" aid="c14" alias="service_rule"/>
		<ele class="column" type="STR255" id="identifier_categoryname" bind="identifier_categoryname" title="`Название категории`" aid="c15" alias="identifier_category"/>
		<ele class="column" type="STR255" id="ratename" bind="ratename" title="`Тариф`" aid="c16" alias="rate"/>
	</ele>

	<!-- Default buttons buttons -->

	<!-- Custom buttons -->
	<ele class="SimpleButton" id="AddWeekTariff" autofocus="no" label="`Add Week Tariff`" />
	<ele class="SimpleButton" id="Delete" autofocus="no" label="`Delete Week Tariff`" />

	<!-- Custom actions -->
	<a id="AddWeekTariff">
		<evt aid="c1" type="WM_PUSH" src="/act/Baloon/WeekTariffAdd" args=""/>
	</a>
	<a id="Delete">
		<call aid="c1" meth="/srv/Baloon/WeekTariff/Delete" args="id=WeekTariffList.id"/>
		<evt aid="refresh" type="WM_REFRESH" id="WeekTariffList"/>
	</a>

	<!-- Default actions -->
	<a id="WeekTariffList">
		<evt aid="c1" type="WM_PUSH" src="/act/Baloon/WeekTariffFolder" args="id=event.id "/>
	</a>
	<a id="Init">
		<call aid="c1" meth="/srv/Baloon/WeekTariff/WeekTariffListGet" args="agroupid " rets="WeekTariffList=*"/>
	</a>
	<lay>
		<grid id="g1" class="ListGrid" heightLimit="100%">
			<row id="r1">
				<cell id="buttonsCell" class="MainButtonsCell">
					<ele id="AddWeekTariff"/>
					<ele id="Delete"/>
				</cell>
			</row>
			<row id="r2">
				<cell id="WeekTariffList_cell" colspan="2"><ele id="WeekTariffList"/></cell>
			</row>
		</grid>
	</lay>
</wnd>
